%!PS-Adobe-2.0 EPSF-2.0
%%Title: A_K.eps
%%Creator: gnuplot 4.6 patchlevel 4
%%CreationDate: Fri Nov 21 00:20:08 2014
%%DocumentFonts: (atend)
%%BoundingBox: 50 50 410 302
%%EndComments
%%BeginProlog
/gnudict 256 dict def
gnudict begin
%
% The following true/false flags may be edited by hand if desired.
% The unit line width and grayscale image gamma correction may also be changed.
%
/Color true def
/Blacktext false def
/Solid false def
/Dashlength 1 def
/Landscape false def
/Level1 false def
/Rounded false def
/ClipToBoundingBox false def
/SuppressPDFMark false def
/TransparentPatterns false def
/gnulinewidth 5.000 def
/userlinewidth gnulinewidth def
/Gamma 1.0 def
/BackgroundColor {-1.000 -1.000 -1.000} def
%
/vshift -66 def
/dl1 {
  10.0 Dashlength mul mul
  Rounded { currentlinewidth 0.75 mul sub dup 0 le { pop 0.01 } if } if
} def
/dl2 {
  10.0 Dashlength mul mul
  Rounded { currentlinewidth 0.75 mul add } if
} def
/hpt_ 31.5 def
/vpt_ 31.5 def
/hpt hpt_ def
/vpt vpt_ def
/doclip {
  ClipToBoundingBox {
    newpath 50 50 moveto 410 50 lineto 410 302 lineto 50 302 lineto closepath
    clip
  } if
} def
%
% Gnuplot Prolog Version 4.6 (September 2012)
%
%/SuppressPDFMark true def
%
/M {moveto} bind def
/L {lineto} bind def
/R {rmoveto} bind def
/V {rlineto} bind def
/N {newpath moveto} bind def
/Z {closepath} bind def
/C {setrgbcolor} bind def
/f {rlineto fill} bind def
/g {setgray} bind def
/Gshow {show} def   % May be redefined later in the file to support UTF-8
/vpt2 vpt 2 mul def
/hpt2 hpt 2 mul def
/Lshow {currentpoint stroke M 0 vshift R 
	Blacktext {gsave 0 setgray show grestore} {show} ifelse} def
/Rshow {currentpoint stroke M dup stringwidth pop neg vshift R
	Blacktext {gsave 0 setgray show grestore} {show} ifelse} def
/Cshow {currentpoint stroke M dup stringwidth pop -2 div vshift R 
	Blacktext {gsave 0 setgray show grestore} {show} ifelse} def
/UP {dup vpt_ mul /vpt exch def hpt_ mul /hpt exch def
  /hpt2 hpt 2 mul def /vpt2 vpt 2 mul def} def
/DL {Color {setrgbcolor Solid {pop []} if 0 setdash}
 {pop pop pop 0 setgray Solid {pop []} if 0 setdash} ifelse} def
/BL {stroke userlinewidth 2 mul setlinewidth
	Rounded {1 setlinejoin 1 setlinecap} if} def
/AL {stroke userlinewidth 2 div setlinewidth
	Rounded {1 setlinejoin 1 setlinecap} if} def
/UL {dup gnulinewidth mul /userlinewidth exch def
	dup 1 lt {pop 1} if 10 mul /udl exch def} def
/PL {stroke userlinewidth setlinewidth
	Rounded {1 setlinejoin 1 setlinecap} if} def
3.8 setmiterlimit
% Default Line colors
/LCw {1 1 1} def
/LCb {0 0 0} def
/LCa {0 0 0} def
/LC0 {1 0 0} def
/LC1 {0 1 0} def
/LC2 {0 0 1} def
/LC3 {1 0 1} def
/LC4 {0 1 1} def
/LC5 {1 1 0} def
/LC6 {0 0 0} def
/LC7 {1 0.3 0} def
/LC8 {0.5 0.5 0.5} def
% Default Line Types
/LTw {PL [] 1 setgray} def
/LTb {BL [] LCb DL} def
/LTa {AL [1 udl mul 2 udl mul] 0 setdash LCa setrgbcolor} def
/LT0 {PL [] LC0 DL} def
/LT1 {PL [4 dl1 2 dl2] LC1 DL} def
/LT2 {PL [2 dl1 3 dl2] LC2 DL} def
/LT3 {PL [1 dl1 1.5 dl2] LC3 DL} def
/LT4 {PL [6 dl1 2 dl2 1 dl1 2 dl2] LC4 DL} def
/LT5 {PL [3 dl1 3 dl2 1 dl1 3 dl2] LC5 DL} def
/LT6 {PL [2 dl1 2 dl2 2 dl1 6 dl2] LC6 DL} def
/LT7 {PL [1 dl1 2 dl2 6 dl1 2 dl2 1 dl1 2 dl2] LC7 DL} def
/LT8 {PL [2 dl1 2 dl2 2 dl1 2 dl2 2 dl1 2 dl2 2 dl1 4 dl2] LC8 DL} def
/Pnt {stroke [] 0 setdash gsave 1 setlinecap M 0 0 V stroke grestore} def
/Dia {stroke [] 0 setdash 2 copy vpt add M
  hpt neg vpt neg V hpt vpt neg V
  hpt vpt V hpt neg vpt V closepath stroke
  Pnt} def
/Pls {stroke [] 0 setdash vpt sub M 0 vpt2 V
  currentpoint stroke M
  hpt neg vpt neg R hpt2 0 V stroke
 } def
/Box {stroke [] 0 setdash 2 copy exch hpt sub exch vpt add M
  0 vpt2 neg V hpt2 0 V 0 vpt2 V
  hpt2 neg 0 V closepath stroke
  Pnt} def
/Crs {stroke [] 0 setdash exch hpt sub exch vpt add M
  hpt2 vpt2 neg V currentpoint stroke M
  hpt2 neg 0 R hpt2 vpt2 V stroke} def
/TriU {stroke [] 0 setdash 2 copy vpt 1.12 mul add M
  hpt neg vpt -1.62 mul V
  hpt 2 mul 0 V
  hpt neg vpt 1.62 mul V closepath stroke
  Pnt} def
/Star {2 copy Pls Crs} def
/BoxF {stroke [] 0 setdash exch hpt sub exch vpt add M
  0 vpt2 neg V hpt2 0 V 0 vpt2 V
  hpt2 neg 0 V closepath fill} def
/TriUF {stroke [] 0 setdash vpt 1.12 mul add M
  hpt neg vpt -1.62 mul V
  hpt 2 mul 0 V
  hpt neg vpt 1.62 mul V closepath fill} def
/TriD {stroke [] 0 setdash 2 copy vpt 1.12 mul sub M
  hpt neg vpt 1.62 mul V
  hpt 2 mul 0 V
  hpt neg vpt -1.62 mul V closepath stroke
  Pnt} def
/TriDF {stroke [] 0 setdash vpt 1.12 mul sub M
  hpt neg vpt 1.62 mul V
  hpt 2 mul 0 V
  hpt neg vpt -1.62 mul V closepath fill} def
/DiaF {stroke [] 0 setdash vpt add M
  hpt neg vpt neg V hpt vpt neg V
  hpt vpt V hpt neg vpt V closepath fill} def
/Pent {stroke [] 0 setdash 2 copy gsave
  translate 0 hpt M 4 {72 rotate 0 hpt L} repeat
  closepath stroke grestore Pnt} def
/PentF {stroke [] 0 setdash gsave
  translate 0 hpt M 4 {72 rotate 0 hpt L} repeat
  closepath fill grestore} def
/Circle {stroke [] 0 setdash 2 copy
  hpt 0 360 arc stroke Pnt} def
/CircleF {stroke [] 0 setdash hpt 0 360 arc fill} def
/C0 {BL [] 0 setdash 2 copy moveto vpt 90 450 arc} bind def
/C1 {BL [] 0 setdash 2 copy moveto
	2 copy vpt 0 90 arc closepath fill
	vpt 0 360 arc closepath} bind def
/C2 {BL [] 0 setdash 2 copy moveto
	2 copy vpt 90 180 arc closepath fill
	vpt 0 360 arc closepath} bind def
/C3 {BL [] 0 setdash 2 copy moveto
	2 copy vpt 0 180 arc closepath fill
	vpt 0 360 arc closepath} bind def
/C4 {BL [] 0 setdash 2 copy moveto
	2 copy vpt 180 270 arc closepath fill
	vpt 0 360 arc closepath} bind def
/C5 {BL [] 0 setdash 2 copy moveto
	2 copy vpt 0 90 arc
	2 copy moveto
	2 copy vpt 180 270 arc closepath fill
	vpt 0 360 arc} bind def
/C6 {BL [] 0 setdash 2 copy moveto
	2 copy vpt 90 270 arc closepath fill
	vpt 0 360 arc closepath} bind def
/C7 {BL [] 0 setdash 2 copy moveto
	2 copy vpt 0 270 arc closepath fill
	vpt 0 360 arc closepath} bind def
/C8 {BL [] 0 setdash 2 copy moveto
	2 copy vpt 270 360 arc closepath fill
	vpt 0 360 arc closepath} bind def
/C9 {BL [] 0 setdash 2 copy moveto
	2 copy vpt 270 450 arc closepath fill
	vpt 0 360 arc closepath} bind def
/C10 {BL [] 0 setdash 2 copy 2 copy moveto vpt 270 360 arc closepath fill
	2 copy moveto
	2 copy vpt 90 180 arc closepath fill
	vpt 0 360 arc closepath} bind def
/C11 {BL [] 0 setdash 2 copy moveto
	2 copy vpt 0 180 arc closepath fill
	2 copy moveto
	2 copy vpt 270 360 arc closepath fill
	vpt 0 360 arc closepath} bind def
/C12 {BL [] 0 setdash 2 copy moveto
	2 copy vpt 180 360 arc closepath fill
	vpt 0 360 arc closepath} bind def
/C13 {BL [] 0 setdash 2 copy moveto
	2 copy vpt 0 90 arc closepath fill
	2 copy moveto
	2 copy vpt 180 360 arc closepath fill
	vpt 0 360 arc closepath} bind def
/C14 {BL [] 0 setdash 2 copy moveto
	2 copy vpt 90 360 arc closepath fill
	vpt 0 360 arc} bind def
/C15 {BL [] 0 setdash 2 copy vpt 0 360 arc closepath fill
	vpt 0 360 arc closepath} bind def
/Rec {newpath 4 2 roll moveto 1 index 0 rlineto 0 exch rlineto
	neg 0 rlineto closepath} bind def
/Square {dup Rec} bind def
/Bsquare {vpt sub exch vpt sub exch vpt2 Square} bind def
/S0 {BL [] 0 setdash 2 copy moveto 0 vpt rlineto BL Bsquare} bind def
/S1 {BL [] 0 setdash 2 copy vpt Square fill Bsquare} bind def
/S2 {BL [] 0 setdash 2 copy exch vpt sub exch vpt Square fill Bsquare} bind def
/S3 {BL [] 0 setdash 2 copy exch vpt sub exch vpt2 vpt Rec fill Bsquare} bind def
/S4 {BL [] 0 setdash 2 copy exch vpt sub exch vpt sub vpt Square fill Bsquare} bind def
/S5 {BL [] 0 setdash 2 copy 2 copy vpt Square fill
	exch vpt sub exch vpt sub vpt Square fill Bsquare} bind def
/S6 {BL [] 0 setdash 2 copy exch vpt sub exch vpt sub vpt vpt2 Rec fill Bsquare} bind def
/S7 {BL [] 0 setdash 2 copy exch vpt sub exch vpt sub vpt vpt2 Rec fill
	2 copy vpt Square fill Bsquare} bind def
/S8 {BL [] 0 setdash 2 copy vpt sub vpt Square fill Bsquare} bind def
/S9 {BL [] 0 setdash 2 copy vpt sub vpt vpt2 Rec fill Bsquare} bind def
/S10 {BL [] 0 setdash 2 copy vpt sub vpt Square fill 2 copy exch vpt sub exch vpt Square fill
	Bsquare} bind def
/S11 {BL [] 0 setdash 2 copy vpt sub vpt Square fill 2 copy exch vpt sub exch vpt2 vpt Rec fill
	Bsquare} bind def
/S12 {BL [] 0 setdash 2 copy exch vpt sub exch vpt sub vpt2 vpt Rec fill Bsquare} bind def
/S13 {BL [] 0 setdash 2 copy exch vpt sub exch vpt sub vpt2 vpt Rec fill
	2 copy vpt Square fill Bsquare} bind def
/S14 {BL [] 0 setdash 2 copy exch vpt sub exch vpt sub vpt2 vpt Rec fill
	2 copy exch vpt sub exch vpt Square fill Bsquare} bind def
/S15 {BL [] 0 setdash 2 copy Bsquare fill Bsquare} bind def
/D0 {gsave translate 45 rotate 0 0 S0 stroke grestore} bind def
/D1 {gsave translate 45 rotate 0 0 S1 stroke grestore} bind def
/D2 {gsave translate 45 rotate 0 0 S2 stroke grestore} bind def
/D3 {gsave translate 45 rotate 0 0 S3 stroke grestore} bind def
/D4 {gsave translate 45 rotate 0 0 S4 stroke grestore} bind def
/D5 {gsave translate 45 rotate 0 0 S5 stroke grestore} bind def
/D6 {gsave translate 45 rotate 0 0 S6 stroke grestore} bind def
/D7 {gsave translate 45 rotate 0 0 S7 stroke grestore} bind def
/D8 {gsave translate 45 rotate 0 0 S8 stroke grestore} bind def
/D9 {gsave translate 45 rotate 0 0 S9 stroke grestore} bind def
/D10 {gsave translate 45 rotate 0 0 S10 stroke grestore} bind def
/D11 {gsave translate 45 rotate 0 0 S11 stroke grestore} bind def
/D12 {gsave translate 45 rotate 0 0 S12 stroke grestore} bind def
/D13 {gsave translate 45 rotate 0 0 S13 stroke grestore} bind def
/D14 {gsave translate 45 rotate 0 0 S14 stroke grestore} bind def
/D15 {gsave translate 45 rotate 0 0 S15 stroke grestore} bind def
/DiaE {stroke [] 0 setdash vpt add M
  hpt neg vpt neg V hpt vpt neg V
  hpt vpt V hpt neg vpt V closepath stroke} def
/BoxE {stroke [] 0 setdash exch hpt sub exch vpt add M
  0 vpt2 neg V hpt2 0 V 0 vpt2 V
  hpt2 neg 0 V closepath stroke} def
/TriUE {stroke [] 0 setdash vpt 1.12 mul add M
  hpt neg vpt -1.62 mul V
  hpt 2 mul 0 V
  hpt neg vpt 1.62 mul V closepath stroke} def
/TriDE {stroke [] 0 setdash vpt 1.12 mul sub M
  hpt neg vpt 1.62 mul V
  hpt 2 mul 0 V
  hpt neg vpt -1.62 mul V closepath stroke} def
/PentE {stroke [] 0 setdash gsave
  translate 0 hpt M 4 {72 rotate 0 hpt L} repeat
  closepath stroke grestore} def
/CircE {stroke [] 0 setdash 
  hpt 0 360 arc stroke} def
/Opaque {gsave closepath 1 setgray fill grestore 0 setgray closepath} def
/DiaW {stroke [] 0 setdash vpt add M
  hpt neg vpt neg V hpt vpt neg V
  hpt vpt V hpt neg vpt V Opaque stroke} def
/BoxW {stroke [] 0 setdash exch hpt sub exch vpt add M
  0 vpt2 neg V hpt2 0 V 0 vpt2 V
  hpt2 neg 0 V Opaque stroke} def
/TriUW {stroke [] 0 setdash vpt 1.12 mul add M
  hpt neg vpt -1.62 mul V
  hpt 2 mul 0 V
  hpt neg vpt 1.62 mul V Opaque stroke} def
/TriDW {stroke [] 0 setdash vpt 1.12 mul sub M
  hpt neg vpt 1.62 mul V
  hpt 2 mul 0 V
  hpt neg vpt -1.62 mul V Opaque stroke} def
/PentW {stroke [] 0 setdash gsave
  translate 0 hpt M 4 {72 rotate 0 hpt L} repeat
  Opaque stroke grestore} def
/CircW {stroke [] 0 setdash 
  hpt 0 360 arc Opaque stroke} def
/BoxFill {gsave Rec 1 setgray fill grestore} def
/Density {
  /Fillden exch def
  currentrgbcolor
  /ColB exch def /ColG exch def /ColR exch def
  /ColR ColR Fillden mul Fillden sub 1 add def
  /ColG ColG Fillden mul Fillden sub 1 add def
  /ColB ColB Fillden mul Fillden sub 1 add def
  ColR ColG ColB setrgbcolor} def
/BoxColFill {gsave Rec PolyFill} def
/PolyFill {gsave Density fill grestore grestore} def
/h {rlineto rlineto rlineto gsave closepath fill grestore} bind def
%
% PostScript Level 1 Pattern Fill routine for rectangles
% Usage: x y w h s a XX PatternFill
%	x,y = lower left corner of box to be filled
%	w,h = width and height of box
%	  a = angle in degrees between lines and x-axis
%	 XX = 0/1 for no/yes cross-hatch
%
/PatternFill {gsave /PFa [ 9 2 roll ] def
  PFa 0 get PFa 2 get 2 div add PFa 1 get PFa 3 get 2 div add translate
  PFa 2 get -2 div PFa 3 get -2 div PFa 2 get PFa 3 get Rec
  TransparentPatterns {} {gsave 1 setgray fill grestore} ifelse
  clip
  currentlinewidth 0.5 mul setlinewidth
  /PFs PFa 2 get dup mul PFa 3 get dup mul add sqrt def
  0 0 M PFa 5 get rotate PFs -2 div dup translate
  0 1 PFs PFa 4 get div 1 add floor cvi
	{PFa 4 get mul 0 M 0 PFs V} for
  0 PFa 6 get ne {
	0 1 PFs PFa 4 get div 1 add floor cvi
	{PFa 4 get mul 0 2 1 roll M PFs 0 V} for
 } if
  stroke grestore} def
%
/languagelevel where
 {pop languagelevel} {1} ifelse
 2 lt
	{/InterpretLevel1 true def}
	{/InterpretLevel1 Level1 def}
 ifelse
%
% PostScript level 2 pattern fill definitions
%
/Level2PatternFill {
/Tile8x8 {/PaintType 2 /PatternType 1 /TilingType 1 /BBox [0 0 8 8] /XStep 8 /YStep 8}
	bind def
/KeepColor {currentrgbcolor [/Pattern /DeviceRGB] setcolorspace} bind def
<< Tile8x8
 /PaintProc {0.5 setlinewidth pop 0 0 M 8 8 L 0 8 M 8 0 L stroke} 
>> matrix makepattern
/Pat1 exch def
<< Tile8x8
 /PaintProc {0.5 setlinewidth pop 0 0 M 8 8 L 0 8 M 8 0 L stroke
	0 4 M 4 8 L 8 4 L 4 0 L 0 4 L stroke}
>> matrix makepattern
/Pat2 exch def
<< Tile8x8
 /PaintProc {0.5 setlinewidth pop 0 0 M 0 8 L
	8 8 L 8 0 L 0 0 L fill}
>> matrix makepattern
/Pat3 exch def
<< Tile8x8
 /PaintProc {0.5 setlinewidth pop -4 8 M 8 -4 L
	0 12 M 12 0 L stroke}
>> matrix makepattern
/Pat4 exch def
<< Tile8x8
 /PaintProc {0.5 setlinewidth pop -4 0 M 8 12 L
	0 -4 M 12 8 L stroke}
>> matrix makepattern
/Pat5 exch def
<< Tile8x8
 /PaintProc {0.5 setlinewidth pop -2 8 M 4 -4 L
	0 12 M 8 -4 L 4 12 M 10 0 L stroke}
>> matrix makepattern
/Pat6 exch def
<< Tile8x8
 /PaintProc {0.5 setlinewidth pop -2 0 M 4 12 L
	0 -4 M 8 12 L 4 -4 M 10 8 L stroke}
>> matrix makepattern
/Pat7 exch def
<< Tile8x8
 /PaintProc {0.5 setlinewidth pop 8 -2 M -4 4 L
	12 0 M -4 8 L 12 4 M 0 10 L stroke}
>> matrix makepattern
/Pat8 exch def
<< Tile8x8
 /PaintProc {0.5 setlinewidth pop 0 -2 M 12 4 L
	-4 0 M 12 8 L -4 4 M 8 10 L stroke}
>> matrix makepattern
/Pat9 exch def
/Pattern1 {PatternBgnd KeepColor Pat1 setpattern} bind def
/Pattern2 {PatternBgnd KeepColor Pat2 setpattern} bind def
/Pattern3 {PatternBgnd KeepColor Pat3 setpattern} bind def
/Pattern4 {PatternBgnd KeepColor Landscape {Pat5} {Pat4} ifelse setpattern} bind def
/Pattern5 {PatternBgnd KeepColor Landscape {Pat4} {Pat5} ifelse setpattern} bind def
/Pattern6 {PatternBgnd KeepColor Landscape {Pat9} {Pat6} ifelse setpattern} bind def
/Pattern7 {PatternBgnd KeepColor Landscape {Pat8} {Pat7} ifelse setpattern} bind def
} def
%
%
%End of PostScript Level 2 code
%
/PatternBgnd {
  TransparentPatterns {} {gsave 1 setgray fill grestore} ifelse
} def
%
% Substitute for Level 2 pattern fill codes with
% grayscale if Level 2 support is not selected.
%
/Level1PatternFill {
/Pattern1 {0.250 Density} bind def
/Pattern2 {0.500 Density} bind def
/Pattern3 {0.750 Density} bind def
/Pattern4 {0.125 Density} bind def
/Pattern5 {0.375 Density} bind def
/Pattern6 {0.625 Density} bind def
/Pattern7 {0.875 Density} bind def
} def
%
% Now test for support of Level 2 code
%
Level1 {Level1PatternFill} {Level2PatternFill} ifelse
%
/Symbol-Oblique /Symbol findfont [1 0 .167 1 0 0] makefont
dup length dict begin {1 index /FID eq {pop pop} {def} ifelse} forall
currentdict end definefont pop
/MFshow {
   { dup 5 get 3 ge
     { 5 get 3 eq {gsave} {grestore} ifelse }
     {dup dup 0 get findfont exch 1 get scalefont setfont
     [ currentpoint ] exch dup 2 get 0 exch R dup 5 get 2 ne {dup dup 6
     get exch 4 get {Gshow} {stringwidth pop 0 R} ifelse }if dup 5 get 0 eq
     {dup 3 get {2 get neg 0 exch R pop} {pop aload pop M} ifelse} {dup 5
     get 1 eq {dup 2 get exch dup 3 get exch 6 get stringwidth pop -2 div
     dup 0 R} {dup 6 get stringwidth pop -2 div 0 R 6 get
     show 2 index {aload pop M neg 3 -1 roll neg R pop pop} {pop pop pop
     pop aload pop M} ifelse }ifelse }ifelse }
     ifelse }
   forall} def
/Gswidth {dup type /stringtype eq {stringwidth} {pop (n) stringwidth} ifelse} def
/MFwidth {0 exch { dup 5 get 3 ge { 5 get 3 eq { 0 } { pop } ifelse }
 {dup 3 get{dup dup 0 get findfont exch 1 get scalefont setfont
     6 get Gswidth pop add} {pop} ifelse} ifelse} forall} def
/MLshow { currentpoint stroke M
  0 exch R
  Blacktext {gsave 0 setgray MFshow grestore} {MFshow} ifelse } bind def
/MRshow { currentpoint stroke M
  exch dup MFwidth neg 3 -1 roll R
  Blacktext {gsave 0 setgray MFshow grestore} {MFshow} ifelse } bind def
/MCshow { currentpoint stroke M
  exch dup MFwidth -2 div 3 -1 roll R
  Blacktext {gsave 0 setgray MFshow grestore} {MFshow} ifelse } bind def
/XYsave    { [( ) 1 2 true false 3 ()] } bind def
/XYrestore { [( ) 1 2 true false 4 ()] } bind def
Level1 SuppressPDFMark or 
{} {
/SDict 10 dict def
systemdict /pdfmark known not {
  userdict /pdfmark systemdict /cleartomark get put
} if
SDict begin [
  /Title (A_K.eps)
  /Subject (gnuplot plot)
  /Creator (gnuplot 4.6 patchlevel 4)
  /Author (valentin)
%  /Producer (gnuplot)
%  /Keywords ()
  /CreationDate (Fri Nov 21 00:20:08 2014)
  /DOCINFO pdfmark
end
} ifelse
end
%%EndProlog
%%Page: 1 1
gnudict begin
gsave
doclip
50 50 translate
0.050 0.050 scale
0 setgray
newpath
(Helvetica) findfont 200 scalefont setfont
BackgroundColor 0 lt 3 1 roll 0 lt exch 0 lt or or not {BackgroundColor C 1.000 0 0 7200.00 5040.00 BoxColFill} if
1.000 UL
LTb
LCb setrgbcolor
1.000 UL
LTa
LCa setrgbcolor
980 640 M
5859 0 V
stroke
LTb
LCb setrgbcolor
980 640 M
63 0 V
5796 0 R
-63 0 V
stroke
860 640 M
[ [(Helvetica) 200.0 0.0 true true 0 ( 0)]
] -66.7 MRshow
1.000 UL
LTb
LCb setrgbcolor
1.000 UL
LTa
LCa setrgbcolor
980 1234 M
5859 0 V
stroke
LTb
LCb setrgbcolor
980 1234 M
63 0 V
5796 0 R
-63 0 V
stroke
860 1234 M
[ [(Helvetica) 200.0 0.0 true true 0 ( 0.2)]
] -66.7 MRshow
1.000 UL
LTb
LCb setrgbcolor
1.000 UL
LTa
LCa setrgbcolor
980 1828 M
5859 0 V
stroke
LTb
LCb setrgbcolor
980 1828 M
63 0 V
5796 0 R
-63 0 V
stroke
860 1828 M
[ [(Helvetica) 200.0 0.0 true true 0 ( 0.4)]
] -66.7 MRshow
1.000 UL
LTb
LCb setrgbcolor
1.000 UL
LTa
LCa setrgbcolor
980 2422 M
5859 0 V
stroke
LTb
LCb setrgbcolor
980 2422 M
63 0 V
5796 0 R
-63 0 V
stroke
860 2422 M
[ [(Helvetica) 200.0 0.0 true true 0 ( 0.6)]
] -66.7 MRshow
1.000 UL
LTb
LCb setrgbcolor
1.000 UL
LTa
LCa setrgbcolor
980 3017 M
5859 0 V
stroke
LTb
LCb setrgbcolor
980 3017 M
63 0 V
5796 0 R
-63 0 V
stroke
860 3017 M
[ [(Helvetica) 200.0 0.0 true true 0 ( 0.8)]
] -66.7 MRshow
1.000 UL
LTb
LCb setrgbcolor
1.000 UL
LTa
LCa setrgbcolor
980 3611 M
5859 0 V
stroke
LTb
LCb setrgbcolor
980 3611 M
63 0 V
5796 0 R
-63 0 V
stroke
860 3611 M
[ [(Helvetica) 200.0 0.0 true true 0 ( 1)]
] -66.7 MRshow
1.000 UL
LTb
LCb setrgbcolor
1.000 UL
LTa
LCa setrgbcolor
980 4205 M
5859 0 V
stroke
LTb
LCb setrgbcolor
980 4205 M
63 0 V
5796 0 R
-63 0 V
stroke
860 4205 M
[ [(Helvetica) 200.0 0.0 true true 0 ( 1.2)]
] -66.7 MRshow
1.000 UL
LTb
LCb setrgbcolor
1.000 UL
LTa
LCa setrgbcolor
980 4799 M
5859 0 V
stroke
LTb
LCb setrgbcolor
980 4799 M
63 0 V
5796 0 R
-63 0 V
stroke
860 4799 M
[ [(Helvetica) 200.0 0.0 true true 0 ( 1.4)]
] -66.7 MRshow
1.000 UL
LTb
LCb setrgbcolor
1.000 UL
LTa
LCa setrgbcolor
980 640 M
0 4159 V
stroke
LTb
LCb setrgbcolor
980 640 M
0 63 V
0 4096 R
0 -63 V
stroke
980 440 M
[ [(Helvetica) 200.0 0.0 true true 0 ( 0)]
] -66.7 MCshow
1.000 UL
LTb
LCb setrgbcolor
1.000 UL
LTa
LCa setrgbcolor
1712 640 M
0 4159 V
stroke
LTb
LCb setrgbcolor
1712 640 M
0 63 V
0 4096 R
0 -63 V
stroke
1712 440 M
[ [(Helvetica) 200.0 0.0 true true 0 ( 1)]
] -66.7 MCshow
1.000 UL
LTb
LCb setrgbcolor
1.000 UL
LTa
LCa setrgbcolor
2445 640 M
0 4159 V
stroke
LTb
LCb setrgbcolor
2445 640 M
0 63 V
0 4096 R
0 -63 V
stroke
2445 440 M
[ [(Helvetica) 200.0 0.0 true true 0 ( 2)]
] -66.7 MCshow
1.000 UL
LTb
LCb setrgbcolor
1.000 UL
LTa
LCa setrgbcolor
3177 640 M
0 4159 V
stroke
LTb
LCb setrgbcolor
3177 640 M
0 63 V
0 4096 R
0 -63 V
stroke
3177 440 M
[ [(Helvetica) 200.0 0.0 true true 0 ( 3)]
] -66.7 MCshow
1.000 UL
LTb
LCb setrgbcolor
1.000 UL
LTa
LCa setrgbcolor
3910 640 M
0 4159 V
stroke
LTb
LCb setrgbcolor
3910 640 M
0 63 V
0 4096 R
0 -63 V
stroke
3910 440 M
[ [(Helvetica) 200.0 0.0 true true 0 ( 4)]
] -66.7 MCshow
1.000 UL
LTb
LCb setrgbcolor
1.000 UL
LTa
LCa setrgbcolor
4642 640 M
0 4159 V
stroke
LTb
LCb setrgbcolor
4642 640 M
0 63 V
0 4096 R
0 -63 V
stroke
4642 440 M
[ [(Helvetica) 200.0 0.0 true true 0 ( 5)]
] -66.7 MCshow
1.000 UL
LTb
LCb setrgbcolor
1.000 UL
LTa
LCa setrgbcolor
5374 640 M
0 3696 V
0 400 R
0 63 V
stroke
LTb
LCb setrgbcolor
5374 640 M
0 63 V
0 4096 R
0 -63 V
stroke
5374 440 M
[ [(Helvetica) 200.0 0.0 true true 0 ( 6)]
] -66.7 MCshow
1.000 UL
LTb
LCb setrgbcolor
1.000 UL
LTa
LCa setrgbcolor
6107 640 M
0 3696 V
0 400 R
0 63 V
stroke
LTb
LCb setrgbcolor
6107 640 M
0 63 V
0 4096 R
0 -63 V
stroke
6107 440 M
[ [(Helvetica) 200.0 0.0 true true 0 ( 7)]
] -66.7 MCshow
1.000 UL
LTb
LCb setrgbcolor
1.000 UL
LTa
LCa setrgbcolor
6839 640 M
0 4159 V
stroke
LTb
LCb setrgbcolor
6839 640 M
0 63 V
0 4096 R
0 -63 V
stroke
6839 440 M
[ [(Helvetica) 200.0 0.0 true true 0 ( 8)]
] -66.7 MCshow
1.000 UL
LTb
LCb setrgbcolor
1.000 UL
LTb
LCb setrgbcolor
980 4799 N
980 640 L
5859 0 V
0 4159 V
-5859 0 V
Z stroke
LCb setrgbcolor
160 2719 M
currentpoint gsave translate -270 rotate 0 0 moveto
[ [(Symbol) 200.0 0.0 true true 0 (a)]
] -66.7 MCshow
grestore
LTb
LCb setrgbcolor
3909 140 M
[ [(Helvetica) 200.0 0.0 true true 0 (K)]
] -66.7 MCshow
LTb
1.000 UP
1.000 UL
LT0
0.00 0.00 1.00 C gsave 3417 2007 N 78 10 V -171 -129 V 83 198 V 10 -79 V 1 PolyFill
3417 2007 M
78 10 V
3324 1888 L
83 198 V
10 -79 V
346 445 R
3417 2007 L
stroke
gsave [] 0 setdash
gsave 3417 2007 N 78 10 V -171 -129 V 83 198 V 10 -79 V 1 PolyFill
3417 2007 M
78 10 V
3324 1888 L
83 198 V
10 -79 V
stroke
grestore
1.000 UL
LT0
0.00 0.00 1.00 C gsave 1901 4205 N 55 -55 V -207 55 V 207 55 V -55 -55 V 1 PolyFill
1901 4205 M
55 -55 V
-207 55 V
207 55 V
-55 -55 V
397 0 R
-397 0 V
stroke
gsave [] 0 setdash
gsave 1901 4205 N 55 -55 V -207 55 V 207 55 V -55 -55 V 1 PolyFill
1901 4205 M
55 -55 V
-207 55 V
207 55 V
-55 -55 V
stroke
grestore
1.000 UL
LT0
0.00 0.00 1.00 C gsave 6640 1200 N -14 77 V 140 -162 V -203 70 V 77 15 V 1 PolyFill
6640 1200 M
-14 77 V
140 -162 V
-203 70 V
77 15 V
-314 212 R
314 -212 V
stroke
gsave [] 0 setdash
gsave 6640 1200 N -14 77 V 140 -162 V -203 70 V 77 15 V 1 PolyFill
6640 1200 M
-14 77 V
140 -162 V
-203 70 V
77 15 V
stroke
grestore
1.000 UL
LTb
LCb setrgbcolor
% Begin plot #1
0.700 UP
1.000 UL
LT0
1.00 0.00 0.00 C LCb setrgbcolor
5936 4636 M
[ [(Helvetica) 200.0 0.0 true true 0 (Numeric)]
] -66.7 MRshow
LT0
1.00 0.00 0.00 C 6056 4636 M
543 0 V
1597 4783 M
53 -270 V
53 -246 V
53 -223 V
53 -204 V
52 -187 V
53 -170 V
53 -156 V
53 -143 V
53 -131 V
53 -120 V
53 -111 V
53 -102 V
53 -95 V
53 -87 V
53 -81 V
53 -75 V
53 -69 V
53 -65 V
53 -61 V
53 -56 V
53 -53 V
53 -49 V
53 -46 V
53 -44 V
53 -41 V
52 -38 V
53 -36 V
53 -35 V
53 -32 V
53 -31 V
53 -29 V
53 -27 V
53 -27 V
53 -24 V
53 -24 V
53 -23 V
53 -22 V
53 -20 V
53 -20 V
53 -19 V
53 -18 V
53 -17 V
53 -17 V
53 -16 V
53 -15 V
53 -15 V
52 -14 V
53 -14 V
53 -13 V
53 -13 V
53 -12 V
53 -12 V
53 -12 V
53 -11 V
53 -10 V
53 -11 V
53 -10 V
53 -10 V
53 -9 V
53 -9 V
53 -9 V
53 -9 V
53 -8 V
53 -8 V
53 -8 V
53 -8 V
53 -7 V
52 -8 V
53 -7 V
53 -7 V
53 -6 V
53 -7 V
53 -6 V
53 -6 V
53 -6 V
53 -6 V
53 -6 V
53 -6 V
53 -5 V
53 -6 V
53 -5 V
53 -5 V
53 -5 V
53 -5 V
53 -5 V
53 -4 V
53 -5 V
53 -4 V
52 -5 V
53 -4 V
53 -4 V
53 -4 V
53 -5 V
53 -3 V
53 -4 V
53 -4 V
53 -4 V
53 -4 V
53 -3 V
1597 4783 Circle
1650 4513 Circle
1703 4267 Circle
1756 4044 Circle
1809 3840 Circle
1861 3653 Circle
1914 3483 Circle
1967 3327 Circle
2020 3184 Circle
2073 3053 Circle
2126 2933 Circle
2179 2822 Circle
2232 2720 Circle
2285 2625 Circle
2338 2538 Circle
2391 2457 Circle
2444 2382 Circle
2497 2313 Circle
2550 2248 Circle
2603 2187 Circle
2656 2131 Circle
2709 2078 Circle
2762 2029 Circle
2815 1983 Circle
2868 1939 Circle
2921 1898 Circle
2973 1860 Circle
3026 1824 Circle
3079 1789 Circle
3132 1757 Circle
3185 1726 Circle
3238 1697 Circle
3291 1670 Circle
3344 1643 Circle
3397 1619 Circle
3450 1595 Circle
3503 1572 Circle
3556 1550 Circle
3609 1530 Circle
3662 1510 Circle
3715 1491 Circle
3768 1473 Circle
3821 1456 Circle
3874 1439 Circle
3927 1423 Circle
3980 1408 Circle
4033 1393 Circle
4085 1379 Circle
4138 1365 Circle
4191 1352 Circle
4244 1339 Circle
4297 1327 Circle
4350 1315 Circle
4403 1303 Circle
4456 1292 Circle
4509 1282 Circle
4562 1271 Circle
4615 1261 Circle
4668 1251 Circle
4721 1242 Circle
4774 1233 Circle
4827 1224 Circle
4880 1215 Circle
4933 1207 Circle
4986 1199 Circle
5039 1191 Circle
5092 1183 Circle
5145 1176 Circle
5197 1168 Circle
5250 1161 Circle
5303 1154 Circle
5356 1148 Circle
5409 1141 Circle
5462 1135 Circle
5515 1129 Circle
5568 1123 Circle
5621 1117 Circle
5674 1111 Circle
5727 1105 Circle
5780 1100 Circle
5833 1094 Circle
5886 1089 Circle
5939 1084 Circle
5992 1079 Circle
6045 1074 Circle
6098 1069 Circle
6151 1065 Circle
6204 1060 Circle
6257 1056 Circle
6309 1051 Circle
6362 1047 Circle
6415 1043 Circle
6468 1039 Circle
6521 1034 Circle
6574 1031 Circle
6627 1027 Circle
6680 1023 Circle
6733 1019 Circle
6786 1015 Circle
6839 1012 Circle
6327 4636 Circle
% End plot #1
% Begin plot #2
1.000 UL
LT0
0.00 0.00 1.00 C LCb setrgbcolor
5936 4436 M
[ [(Helvetica) 200.0 0.0 true true 0 (Theoretic)]
] -66.7 MRshow
LT0
0.00 0.00 1.00 C 6056 4436 M
543 0 V
3045 2257 M
1 -14 V
1 -9 V
0 -8 V
1 -7 V
1 -6 V
1 -6 V
0 -5 V
1 -4 V
1 -5 V
1 -4 V
0 -4 V
1 -4 V
1 -4 V
1 -4 V
0 -3 V
1 -3 V
1 -4 V
0 -3 V
1 -3 V
1 -3 V
1 -3 V
0 -3 V
1 -3 V
1 -2 V
1 -3 V
0 -3 V
1 -2 V
1 -3 V
1 -2 V
0 -3 V
1 -2 V
1 -3 V
0 -2 V
1 -2 V
1 -2 V
1 -3 V
0 -2 V
1 -2 V
1 -2 V
1 -2 V
0 -3 V
1 -2 V
1 -2 V
1 -1 V
0 -3 V
1 -2 V
1 -1 V
0 -2 V
1 -2 V
1 -2 V
1 -2 V
0 -2 V
1 -2 V
1 -1 V
1 -2 V
0 -2 V
1 -2 V
1 -2 V
1 -1 V
0 -2 V
1 -2 V
1 -1 V
0 -2 V
1 -2 V
1 -1 V
1 -2 V
0 -2 V
1 -1 V
1 -2 V
1 -2 V
0 -1 V
1 -2 V
1 -1 V
0 -2 V
1 -1 V
1 -2 V
1 -1 V
0 -2 V
1 -1 V
1 -2 V
1 -1 V
0 -2 V
1 -1 V
1 -2 V
1 -1 V
0 -2 V
1 -1 V
1 -1 V
0 -2 V
1 -1 V
1 -1 V
1 -2 V
0 -1 V
1 -2 V
1 -1 V
1 -1 V
0 -1 V
1 -2 V
1 -1 V
1 -2 V
0 -1 V
1 -1 V
stroke 3120 2005 M
1 -1 V
0 -2 V
1 -1 V
1 -1 V
1 -1 V
0 -2 V
1 -1 V
1 -1 V
1 -2 V
0 -1 V
1 -1 V
1 -1 V
1 -1 V
0 -1 V
1 -2 V
1 -1 V
0 -1 V
1 -2 V
1 0 V
1 -2 V
0 -1 V
1 -1 V
1 -1 V
1 -1 V
0 -2 V
1 -1 V
1 -1 V
1 -1 V
0 -1 V
1 -1 V
1 -1 V
0 -2 V
1 0 V
1 -2 V
1 -1 V
0 -1 V
1 -1 V
1 -1 V
1 -1 V
0 -1 V
1 -1 V
1 -2 V
1 -2 V
1 -1 V
1 -1 V
0 -1 V
1 -1 V
1 -1 V
1 -1 V
0 -1 V
1 -1 V
1 -1 V
1 -1 V
0 -1 V
1 -1 V
1 -1 V
0 -1 V
1 -1 V
1 -1 V
1 -1 V
0 -1 V
1 -1 V
1 -1 V
1 -1 V
0 -1 V
1 -1 V
1 -1 V
1 -1 V
0 -1 V
1 -1 V
1 -1 V
0 -1 V
1 -1 V
1 -1 V
1 -1 V
0 -1 V
1 -1 V
1 -1 V
1 -1 V
1 -1 V
1 -1 V
1 -1 V
0 -1 V
1 -1 V
1 -1 V
0 -1 V
1 -1 V
1 -1 V
1 -1 V
0 -1 V
1 0 V
1 -1 V
1 -1 V
0 -1 V
1 -1 V
1 -1 V
1 -1 V
0 -1 V
1 -1 V
1 0 V
0 -1 V
1 -1 V
1 -1 V
1 -1 V
stroke 3198 1894 M
0 -1 V
1 -1 V
1 -1 V
1 -1 V
0 -1 V
1 0 V
1 -1 V
0 -1 V
1 -1 V
1 -1 V
1 -1 V
1 -1 V
1 -1 V
1 -1 V
0 -1 V
1 -1 V
1 0 V
1 -1 V
0 -1 V
1 -1 V
1 -1 V
1 -1 V
1 -1 V
1 -1 V
0 -1 V
1 -1 V
1 0 V
1 -1 V
0 -1 V
1 -1 V
1 -1 V
1 0 V
0 -1 V
1 -1 V
1 -1 V
0 -1 V
1 0 V
1 -1 V
1 -1 V
0 -1 V
1 0 V
1 -1 V
1 -1 V
0 -1 V
1 -1 V
1 0 V
1 -1 V
0 -1 V
1 -1 V
1 -1 V
1 -1 V
1 -1 V
1 -1 V
1 -1 V
1 -1 V
1 0 V
0 -1 V
1 -1 V
1 -1 V
1 0 V
0 -1 V
1 -1 V
1 -1 V
1 -1 V
1 -1 V
1 -1 V
1 -1 V
1 -1 V
1 0 V
0 -1 V
1 -1 V
1 -1 V
1 -1 V
1 -1 V
1 -1 V
1 -1 V
1 -1 V
1 0 V
0 -1 V
1 -1 V
1 -1 V
1 0 V
0 -1 V
1 -1 V
1 0 V
0 -1 V
1 -1 V
1 0 V
1 -1 V
0 -1 V
1 0 V
1 -1 V
1 -1 V
1 -1 V
1 -1 V
1 -1 V
1 -1 V
1 -1 V
1 -1 V
1 -1 V
1 0 V
0 -1 V
1 -1 V
1 0 V
stroke 3282 1807 M
1 -1 V
0 -1 V
1 0 V
1 -1 V
1 -1 V
1 -1 V
1 -1 V
1 -1 V
1 -1 V
1 0 V
0 -1 V
1 -1 V
1 0 V
1 -1 V
0 -1 V
1 0 V
1 -1 V
1 0 V
0 -1 V
1 -1 V
1 -1 V
1 -1 V
1 0 V
1 -1 V
0 -1 V
1 0 V
1 -1 V
1 -1 V
1 -1 V
1 0 V
0 -1 V
1 -1 V
1 0 V
1 -1 V
0 -1 V
1 0 V
1 -1 V
1 0 V
0 -1 V
1 -1 V
1 0 V
1 -1 V
1 -1 V
1 -1 V
1 -1 V
1 -1 V
1 0 V
0 -1 V
1 0 V
1 -1 V
1 -1 V
1 -1 V
1 0 V
1 -1 V
0 -1 V
1 0 V
1 -1 V
1 -1 V
1 -1 V
1 0 V
0 -1 V
1 0 V
1 -1 V
1 -1 V
1 -1 V
1 0 V
1 -1 V
0 -1 V
1 0 V
1 -1 V
1 -1 V
1 0 V
1 -1 V
0 -1 V
1 0 V
1 -1 V
1 0 V
0 -1 V
1 0 V
1 -1 V
1 -1 V
1 -1 V
1 0 V
0 -1 V
1 -1 V
1 0 V
1 0 V
0 -1 V
1 -1 V
1 0 V
1 -1 V
1 -1 V
1 -1 V
1 0 V
1 -1 V
1 -1 V
1 -1 V
1 0 V
1 -1 V
0 -1 V
1 0 V
1 -1 V
1 0 V
0 -1 V
stroke 3368 1735 M
1 0 V
1 -1 V
1 -1 V
1 0 V
1 -1 V
0 -1 V
1 0 V
1 0 V
1 -1 V
0 -1 V
1 0 V
1 -1 V
1 0 V
0 -1 V
1 0 V
1 -1 V
0 -1 V
1 0 V
1 0 V
1 -1 V
0 -1 V
1 0 V
1 0 V
1 -1 V
0 -1 V
1 0 V
1 -1 V
1 0 V
0 -1 V
1 0 V
1 -1 V
1 -1 V
1 0 V
1 -1 V
1 -1 V
1 0 V
1 -1 V
1 -1 V
1 -1 V
1 0 V
1 -1 V
1 -1 V
1 -1 V
1 0 V
1 -1 V
1 -1 V
1 0 V
1 -1 V
1 -1 V
1 0 V
0 -1 V
1 0 V
1 -1 V
1 0 V
0 -1 V
1 0 V
1 -1 V
1 0 V
0 -1 V
1 0 V
1 -1 V
1 0 V
0 -1 V
1 0 V
1 -1 V
1 -1 V
1 0 V
1 -1 V
1 -1 V
1 0 V
1 -1 V
1 0 V
1 -1 V
1 0 V
0 -1 V
1 -1 V
1 0 V
1 -1 V
1 0 V
1 -1 V
0 -1 V
1 0 V
1 0 V
1 -1 V
1 -1 V
1 0 V
1 -1 V
1 -1 V
1 0 V
0 -1 V
1 0 V
1 0 V
1 -1 V
0 -1 V
1 0 V
1 -1 V
1 0 V
1 -1 V
1 0 V
0 -1 V
1 0 V
1 -1 V
1 0 V
0 -1 V
stroke 3455 1675 M
1 0 V
1 -1 V
1 0 V
1 -1 V
1 0 V
1 -1 V
1 -1 V
1 0 V
0 -1 V
1 0 V
1 -1 V
1 0 V
0 -1 V
1 0 V
1 0 V
1 -1 V
1 -1 V
1 0 V
1 -1 V
1 -1 V
1 0 V
0 -1 V
1 0 V
1 0 V
1 -1 V
1 -1 V
1 0 V
1 -1 V
1 -1 V
1 0 V
1 -1 V
1 -1 V
1 0 V
1 -1 V
1 0 V
1 -1 V
1 -1 V
1 0 V
1 0 V
0 -1 V
1 0 V
1 -1 V
1 0 V
1 -1 V
1 0 V
0 -1 V
1 0 V
1 -1 V
1 0 V
0 -1 V
1 0 V
1 0 V
1 -1 V
1 -1 V
1 0 V
0 -1 V
1 0 V
1 -1 V
1 0 V
1 -1 V
1 0 V
1 -1 V
1 -1 V
1 0 V
1 0 V
0 -1 V
1 0 V
1 -1 V
1 -1 V
1 0 V
1 0 V
0 -1 V
1 0 V
1 -1 V
1 0 V
0 -1 V
1 0 V
1 0 V
1 -1 V
1 -1 V
1 0 V
1 -1 V
1 0 V
1 -1 V
1 0 V
1 -1 V
1 0 V
1 -1 V
1 0 V
1 -1 V
1 -1 V
1 0 V
1 -1 V
1 0 V
1 -1 V
1 -1 V
1 0 V
1 0 V
0 -1 V
1 0 V
1 -1 V
1 0 V
1 -1 V
1 0 V
stroke 3548 1621 M
0 -1 V
1 0 V
1 0 V
1 -1 V
1 0 V
1 -1 V
1 0 V
0 -1 V
1 0 V
1 -1 V
1 0 V
1 -1 V
1 0 V
0 -1 V
1 0 V
1 0 V
1 -1 V
1 0 V
1 -1 V
1 0 V
0 -1 V
1 0 V
1 0 V
0 -1 V
1 0 V
1 -1 V
1 0 V
1 -1 V
1 0 V
1 0 V
0 -1 V
1 0 V
1 -1 V
1 0 V
0 -1 V
1 0 V
1 0 V
0 -1 V
1 0 V
1 0 V
1 -1 V
1 0 V
1 -1 V
1 0 V
0 -1 V
1 0 V
1 -1 V
1 0 V
1 0 V
1 -1 V
1 -1 V
1 0 V
1 -1 V
1 0 V
1 -1 V
1 0 V
1 -1 V
1 0 V
1 -1 V
1 0 V
1 -1 V
1 0 V
1 -1 V
1 0 V
1 -1 V
1 0 V
1 -1 V
1 0 V
1 -1 V
1 0 V
1 -1 V
1 0 V
0 -1 V
1 0 V
1 0 V
1 -1 V
1 0 V
1 -1 V
1 0 V
0 -1 V
1 0 V
1 0 V
0 -1 V
1 0 V
1 0 V
1 -1 V
1 0 V
1 -1 V
1 0 V
1 -1 V
1 0 V
1 -1 V
1 0 V
1 -1 V
1 0 V
1 -1 V
1 0 V
1 -1 V
1 0 V
1 -1 V
1 0 V
1 0 V
1 -1 V
1 -1 V
stroke 3640 1573 M
1 0 V
1 -1 V
1 0 V
1 0 V
0 -1 V
1 0 V
1 0 V
1 -1 V
1 0 V
1 -1 V
1 0 V
0 -1 V
1 0 V
1 0 V
0 -1 V
1 0 V
1 0 V
1 -1 V
1 0 V
1 -1 V
1 0 V
1 -1 V
1 0 V
1 -1 V
1 0 V
1 0 V
0 -1 V
1 0 V
1 0 V
1 -1 V
1 0 V
1 -1 V
1 0 V
0 -1 V
1 0 V
1 0 V
1 -1 V
1 0 V
1 -1 V
1 0 V
1 -1 V
1 0 V
1 0 V
1 -1 V
1 0 V
0 -1 V
1 0 V
1 0 V
0 -1 V
1 0 V
1 0 V
1 -1 V
1 0 V
1 -1 V
1 0 V
1 0 V
1 -1 V
1 0 V
0 -1 V
1 0 V
1 0 V
0 -1 V
1 0 V
1 0 V
1 0 V
0 -1 V
1 0 V
1 -1 V
1 0 V
1 -1 V
1 0 V
1 0 V
1 -1 V
1 0 V
0 -1 V
1 0 V
1 0 V
1 0 V
0 -1 V
1 0 V
1 0 V
1 -1 V
1 0 V
1 -1 V
1 0 V
1 -1 V
1 0 V
1 -1 V
1 0 V
1 0 V
0 -1 V
1 0 V
1 0 V
1 0 V
0 -1 V
1 0 V
1 -1 V
1 0 V
1 -1 V
1 0 V
1 0 V
1 -1 V
1 0 V
1 -1 V
stroke 3730 1532 M
1 0 V
1 0 V
0 -1 V
1 0 V
1 0 V
0 -1 V
1 0 V
1 0 V
1 -1 V
1 0 V
1 0 V
1 -1 V
1 0 V
1 -1 V
1 0 V
1 -1 V
1 0 V
1 -1 V
1 0 V
1 0 V
0 -1 V
1 0 V
1 0 V
1 -1 V
1 0 V
1 0 V
1 -1 V
1 0 V
1 -1 V
1 0 V
1 0 V
1 -1 V
1 0 V
1 -1 V
1 0 V
1 -1 V
1 0 V
1 0 V
1 -1 V
1 0 V
1 -1 V
1 0 V
1 0 V
0 -1 V
1 0 V
1 0 V
1 -1 V
1 0 V
1 -1 V
1 0 V
1 -1 V
1 0 V
1 0 V
1 -1 V
1 0 V
1 -1 V
1 0 V
1 0 V
1 -1 V
1 0 V
1 -1 V
1 0 V
1 0 V
0 -1 V
1 0 V
1 0 V
1 0 V
0 -1 V
1 0 V
1 0 V
1 -1 V
1 0 V
1 0 V
0 -1 V
1 0 V
1 0 V
1 0 V
0 -1 V
1 0 V
1 0 V
1 -1 V
1 0 V
1 0 V
1 -1 V
1 0 V
1 -1 V
1 0 V
1 -1 V
1 0 V
1 0 V
1 -1 V
1 0 V
1 -1 V
1 0 V
1 -1 V
1 0 V
1 0 V
1 -1 V
1 0 V
1 0 V
1 -1 V
1 0 V
1 0 V
0 -1 V
stroke 3825 1493 M
1 0 V
1 0 V
1 -1 V
1 0 V
1 0 V
0 -1 V
1 0 V
1 0 V
1 0 V
0 -1 V
1 0 V
1 0 V
1 -1 V
1 0 V
1 0 V
0 -1 V
1 0 V
1 0 V
1 0 V
0 -1 V
1 0 V
1 0 V
1 -1 V
1 0 V
1 -1 V
1 0 V
1 0 V
1 0 V
0 -1 V
1 0 V
1 0 V
1 -1 V
1 0 V
1 -1 V
1 0 V
1 0 V
1 -1 V
1 0 V
1 0 V
1 -1 V
1 0 V
1 0 V
1 -1 V
1 0 V
1 -1 V
1 0 V
1 -1 V
1 0 V
1 0 V
1 0 V
1 -1 V
1 0 V
1 -1 V
1 0 V
1 -1 V
1 0 V
1 0 V
1 0 V
1 -1 V
1 0 V
1 -1 V
1 0 V
1 0 V
1 0 V
1 -1 V
1 0 V
1 -1 V
1 0 V
1 -1 V
1 0 V
1 0 V
1 0 V
1 -1 V
1 0 V
1 -1 V
1 0 V
1 0 V
1 -1 V
1 0 V
1 0 V
1 -1 V
1 0 V
1 0 V
1 -1 V
1 0 V
1 -1 V
1 0 V
1 0 V
1 0 V
1 -1 V
1 0 V
1 -1 V
1 0 V
1 0 V
1 0 V
0 -1 V
1 0 V
1 0 V
1 -1 V
1 0 V
1 -1 V
1 0 V
1 0 V
1 0 V
stroke 3923 1458 M
0 -1 V
1 0 V
1 0 V
1 0 V
0 -1 V
1 0 V
1 0 V
1 -1 V
1 0 V
1 0 V
1 -1 V
1 0 V
1 0 V
0 -1 V
1 0 V
1 0 V
1 0 V
0 -1 V
1 0 V
1 0 V
1 0 V
1 -1 V
1 0 V
1 -1 V
1 0 V
1 0 V
1 0 V
1 -1 V
1 0 V
1 -1 V
1 0 V
1 0 V
1 -1 V
1 0 V
1 0 V
1 0 V
1 -1 V
1 0 V
1 -1 V
1 0 V
1 0 V
1 -1 V
1 0 V
1 0 V
1 0 V
0 -1 V
1 0 V
1 0 V
1 -1 V
1 0 V
1 0 V
1 -1 V
1 0 V
1 0 V
1 -1 V
1 0 V
1 0 V
1 -1 V
1 0 V
1 0 V
1 -1 V
1 0 V
1 0 V
1 -1 V
1 0 V
1 0 V
1 -1 V
1 0 V
1 0 V
1 0 V
1 -1 V
1 0 V
1 -1 V
1 0 V
1 0 V
1 -1 V
1 0 V
1 0 V
1 0 V
0 -1 V
1 0 V
1 0 V
1 0 V
0 -1 V
1 0 V
1 0 V
1 0 V
1 -1 V
1 0 V
1 0 V
1 -1 V
1 0 V
1 -1 V
1 0 V
1 0 V
1 0 V
1 -1 V
1 0 V
1 0 V
1 -1 V
1 0 V
1 0 V
1 -1 V
1 0 V
stroke 4020 1425 M
1 0 V
1 0 V
0 -1 V
1 0 V
1 0 V
1 -1 V
1 0 V
1 0 V
1 -1 V
1 0 V
1 0 V
1 0 V
1 -1 V
1 0 V
1 0 V
1 -1 V
1 0 V
1 0 V
1 0 V
0 -1 V
1 0 V
1 0 V
1 0 V
0 -1 V
1 0 V
1 0 V
1 0 V
0 -1 V
1 0 V
1 0 V
1 0 V
1 -1 V
1 0 V
1 0 V
1 -1 V
1 0 V
1 0 V
1 -1 V
1 0 V
1 0 V
1 0 V
0 -1 V
1 0 V
1 0 V
1 0 V
0 -1 V
1 0 V
1 0 V
1 0 V
0 -1 V
1 0 V
1 0 V
1 0 V
1 -1 V
1 0 V
1 0 V
1 -1 V
1 0 V
1 0 V
1 0 V
1 0 V
0 -1 V
1 0 V
1 0 V
1 -1 V
1 0 V
1 0 V
1 -1 V
1 0 V
1 0 V
1 0 V
1 -1 V
1 0 V
1 0 V
1 -1 V
1 0 V
1 0 V
1 -1 V
1 0 V
1 0 V
1 0 V
1 -1 V
1 0 V
1 0 V
1 -1 V
1 0 V
1 0 V
1 0 V
1 -1 V
1 0 V
1 0 V
1 -1 V
1 0 V
1 0 V
1 0 V
0 -1 V
1 0 V
1 0 V
1 0 V
1 -1 V
1 0 V
1 0 V
1 -1 V
1 0 V
stroke 4115 1396 M
1 0 V
1 -1 V
1 0 V
1 0 V
1 0 V
1 -1 V
1 0 V
1 0 V
1 -1 V
1 0 V
1 0 V
1 -1 V
1 0 V
1 0 V
1 0 V
1 0 V
0 -1 V
1 0 V
1 0 V
1 0 V
0 -1 V
1 0 V
1 0 V
1 0 V
1 0 V
1 -1 V
1 0 V
1 0 V
1 -1 V
1 0 V
1 0 V
1 -1 V
1 0 V
1 0 V
1 0 V
1 -1 V
1 0 V
1 0 V
1 -1 V
1 0 V
1 0 V
1 0 V
1 -1 V
1 0 V
1 0 V
1 0 V
0 -1 V
1 0 V
1 0 V
1 0 V
1 -1 V
1 0 V
1 0 V
1 -1 V
1 0 V
1 0 V
1 0 V
1 -1 V
1 0 V
1 0 V
1 -1 V
1 0 V
1 0 V
1 0 V
1 0 V
1 -1 V
1 0 V
1 0 V
1 -1 V
1 0 V
1 0 V
1 -1 V
1 0 V
1 0 V
1 0 V
1 0 V
1 -1 V
1 0 V
1 0 V
0 -1 V
1 0 V
1 0 V
1 0 V
1 -1 V
1 0 V
1 0 V
1 0 V
1 0 V
1 -1 V
1 0 V
1 0 V
0 -1 V
1 0 V
1 0 V
1 0 V
1 -1 V
1 0 V
1 0 V
1 0 V
1 0 V
1 -1 V
1 0 V
1 0 V
0 -1 V
stroke 4213 1368 M
1 0 V
1 0 V
1 0 V
1 0 V
1 -1 V
1 0 V
1 0 V
1 0 V
0 -1 V
1 0 V
1 0 V
1 0 V
0 -1 V
1 0 V
1 0 V
1 0 V
1 0 V
1 -1 V
1 0 V
1 0 V
1 0 V
0 -1 V
1 0 V
1 0 V
1 0 V
1 -1 V
1 0 V
1 0 V
1 0 V
1 0 V
1 -1 V
1 0 V
1 0 V
0 -1 V
1 0 V
1 0 V
1 0 V
1 0 V
1 0 V
1 -1 V
1 0 V
1 0 V
1 -1 V
1 0 V
1 0 V
1 -1 V
1 0 V
1 0 V
1 0 V
1 0 V
1 -1 V
1 0 V
1 0 V
1 0 V
0 -1 V
1 0 V
1 0 V
1 0 V
1 -1 V
1 0 V
1 0 V
1 0 V
1 0 V
0 -1 V
1 0 V
1 0 V
1 0 V
1 -1 V
1 0 V
1 0 V
1 0 V
1 -1 V
1 0 V
1 0 V
1 0 V
1 -1 V
1 0 V
1 0 V
1 0 V
1 -1 V
1 0 V
1 0 V
1 0 V
1 -1 V
1 0 V
1 0 V
1 0 V
1 -1 V
1 0 V
1 0 V
1 0 V
0 -1 V
1 0 V
1 0 V
1 0 V
1 0 V
1 -1 V
1 0 V
1 0 V
1 0 V
0 -1 V
1 0 V
1 0 V
1 0 V
stroke 4309 1344 M
1 -1 V
1 0 V
1 0 V
1 0 V
1 0 V
1 0 V
0 -1 V
1 0 V
1 0 V
1 -1 V
1 0 V
1 0 V
1 0 V
1 -1 V
1 0 V
1 0 V
1 0 V
1 0 V
1 -1 V
1 0 V
1 0 V
1 0 V
1 -1 V
1 0 V
1 0 V
1 0 V
1 0 V
1 -1 V
1 0 V
1 0 V
1 0 V
0 -1 V
1 0 V
1 0 V
1 0 V
1 -1 V
1 0 V
1 0 V
1 0 V
1 0 V
0 -1 V
1 0 V
1 0 V
1 0 V
1 -1 V
1 0 V
1 0 V
1 0 V
1 -1 V
1 0 V
1 0 V
1 0 V
1 0 V
1 -1 V
1 0 V
1 0 V
1 0 V
1 -1 V
1 0 V
1 0 V
1 0 V
1 0 V
1 -1 V
1 0 V
1 0 V
1 0 V
0 -1 V
1 0 V
1 0 V
1 0 V
1 -1 V
1 0 V
1 0 V
1 0 V
1 0 V
1 -1 V
1 0 V
1 0 V
1 0 V
1 -1 V
1 0 V
1 0 V
1 0 V
1 -1 V
1 0 V
1 0 V
1 0 V
1 0 V
1 0 V
0 -1 V
1 0 V
1 0 V
1 0 V
1 -1 V
1 0 V
1 0 V
1 0 V
1 -1 V
1 0 V
1 0 V
1 0 V
1 0 V
1 -1 V
1 0 V
stroke 4408 1320 M
1 0 V
1 0 V
0 -1 V
1 0 V
1 0 V
1 0 V
1 0 V
1 0 V
1 -1 V
1 0 V
1 0 V
1 0 V
1 -1 V
1 0 V
1 0 V
1 0 V
1 -1 V
1 0 V
1 0 V
1 0 V
1 0 V
1 -1 V
1 0 V
1 0 V
1 0 V
0 -1 V
1 0 V
1 0 V
1 0 V
1 0 V
1 -1 V
1 0 V
1 0 V
1 0 V
1 0 V
1 -1 V
1 0 V
1 0 V
1 0 V
1 -1 V
1 0 V
1 0 V
1 0 V
1 -1 V
1 0 V
1 0 V
1 0 V
1 0 V
1 -1 V
1 0 V
1 0 V
1 0 V
1 0 V
1 -1 V
1 0 V
1 0 V
1 0 V
1 0 V
1 -1 V
1 0 V
1 0 V
1 0 V
0 -1 V
1 0 V
1 0 V
1 0 V
1 0 V
1 -1 V
1 0 V
1 0 V
1 0 V
1 0 V
1 -1 V
1 0 V
1 0 V
1 0 V
1 -1 V
1 0 V
1 0 V
1 0 V
1 0 V
1 -1 V
1 0 V
1 0 V
1 0 V
1 0 V
1 -1 V
1 0 V
1 0 V
1 0 V
1 -1 V
1 0 V
1 0 V
1 0 V
1 -1 V
1 0 V
1 0 V
1 0 V
1 0 V
1 0 V
1 -1 V
1 0 V
1 0 V
1 0 V
stroke 4509 1298 M
0 -1 V
1 0 V
1 0 V
1 0 V
1 0 V
1 0 V
1 -1 V
1 0 V
1 0 V
1 0 V
1 0 V
1 -1 V
1 0 V
1 0 V
1 -1 V
1 0 V
1 0 V
1 0 V
1 0 V
1 0 V
1 -1 V
1 0 V
1 0 V
1 0 V
1 0 V
0 -1 V
1 0 V
1 0 V
1 0 V
1 0 V
1 -1 V
1 0 V
1 0 V
1 0 V
1 0 V
1 -1 V
1 0 V
1 0 V
1 0 V
1 0 V
0 -1 V
1 0 V
1 0 V
1 0 V
1 0 V
1 0 V
1 0 V
0 -1 V
1 0 V
1 0 V
1 0 V
1 0 V
1 -1 V
1 0 V
1 0 V
1 0 V
1 -1 V
1 0 V
1 0 V
1 0 V
1 0 V
1 0 V
1 -1 V
1 0 V
1 0 V
1 0 V
1 0 V
0 -1 V
1 0 V
1 0 V
1 0 V
1 -1 V
1 0 V
1 0 V
1 0 V
1 0 V
1 0 V
1 -1 V
1 0 V
1 0 V
1 0 V
1 -1 V
1 0 V
1 0 V
1 0 V
1 0 V
1 -1 V
1 0 V
1 0 V
1 0 V
1 0 V
1 0 V
0 -1 V
1 0 V
1 0 V
1 0 V
1 0 V
1 -1 V
1 0 V
1 0 V
1 0 V
1 0 V
1 0 V
1 0 V
stroke 4607 1278 M
0 -1 V
1 0 V
1 0 V
1 0 V
1 0 V
1 -1 V
1 0 V
1 0 V
1 0 V
1 0 V
0 -1 V
1 0 V
1 0 V
1 0 V
1 0 V
1 0 V
1 -1 V
1 0 V
1 0 V
1 0 V
1 0 V
0 -1 V
1 0 V
1 0 V
1 0 V
1 0 V
1 -1 V
1 0 V
1 0 V
1 0 V
1 0 V
1 0 V
1 -1 V
1 0 V
1 0 V
1 0 V
1 0 V
1 -1 V
1 0 V
1 0 V
1 0 V
1 0 V
0 -1 V
1 0 V
1 0 V
1 0 V
1 0 V
1 0 V
1 -1 V
1 0 V
1 0 V
1 0 V
1 0 V
1 0 V
0 -1 V
1 0 V
1 0 V
1 0 V
1 0 V
1 0 V
1 -1 V
1 0 V
1 0 V
1 0 V
1 0 V
1 -1 V
1 0 V
1 0 V
1 0 V
1 0 V
1 -1 V
1 0 V
1 0 V
1 0 V
1 0 V
1 0 V
0 -1 V
1 0 V
1 0 V
1 0 V
1 0 V
1 -1 V
1 0 V
1 0 V
1 0 V
1 0 V
1 -1 V
1 0 V
1 0 V
1 0 V
1 0 V
1 0 V
1 -1 V
1 0 V
1 0 V
1 0 V
1 0 V
1 -1 V
1 0 V
1 0 V
1 0 V
1 0 V
1 0 V
1 0 V
stroke 4705 1259 M
1 -1 V
1 0 V
1 0 V
1 0 V
1 -1 V
1 0 V
1 0 V
1 0 V
1 0 V
1 -1 V
1 0 V
1 0 V
1 0 V
1 0 V
1 0 V
1 -1 V
1 0 V
1 0 V
1 0 V
1 0 V
1 -1 V
1 0 V
1 0 V
1 0 V
1 0 V
0 -1 V
1 0 V
1 0 V
1 0 V
1 0 V
1 0 V
1 0 V
1 -1 V
1 0 V
1 0 V
1 0 V
1 0 V
1 -1 V
1 0 V
1 0 V
1 0 V
1 0 V
1 0 V
0 -1 V
1 0 V
1 0 V
1 0 V
1 0 V
1 0 V
1 -1 V
1 0 V
1 0 V
1 0 V
1 0 V
1 0 V
0 -1 V
1 0 V
1 0 V
1 0 V
1 0 V
1 0 V
1 0 V
1 -1 V
1 0 V
1 0 V
1 0 V
1 0 V
1 -1 V
1 0 V
1 0 V
1 0 V
1 0 V
1 -1 V
1 0 V
1 0 V
1 0 V
1 0 V
1 0 V
1 0 V
1 -1 V
1 0 V
1 0 V
1 0 V
1 0 V
1 -1 V
1 0 V
1 0 V
1 0 V
1 0 V
0 -1 V
1 0 V
1 0 V
1 0 V
1 0 V
1 0 V
1 0 V
1 0 V
1 -1 V
1 0 V
1 0 V
1 0 V
1 -1 V
1 0 V
1 0 V
stroke 4805 1240 M
1 0 V
1 0 V
1 -1 V
1 0 V
1 0 V
1 0 V
1 0 V
1 0 V
1 0 V
1 0 V
0 -1 V
1 0 V
1 0 V
1 0 V
1 0 V
1 0 V
1 -1 V
1 0 V
1 0 V
1 0 V
1 0 V
1 0 V
1 -1 V
1 0 V
1 0 V
1 0 V
1 0 V
1 0 V
0 -1 V
1 0 V
1 0 V
1 0 V
1 0 V
1 0 V
0 -1 V
1 0 V
1 0 V
1 0 V
1 0 V
1 0 V
1 0 V
1 -1 V
1 0 V
1 0 V
1 0 V
1 0 V
1 -1 V
1 0 V
1 0 V
1 0 V
1 0 V
1 0 V
1 -1 V
1 0 V
1 0 V
1 0 V
1 0 V
1 0 V
1 0 V
1 -1 V
1 0 V
1 0 V
1 0 V
1 0 V
1 -1 V
1 0 V
1 0 V
1 0 V
1 0 V
1 0 V
1 -1 V
1 0 V
1 0 V
1 0 V
1 0 V
1 0 V
1 -1 V
1 0 V
1 0 V
1 0 V
1 0 V
1 0 V
0 -1 V
1 0 V
1 0 V
1 0 V
1 0 V
1 0 V
1 0 V
1 0 V
1 -1 V
1 0 V
1 0 V
1 0 V
1 0 V
1 -1 V
1 0 V
1 0 V
1 0 V
1 0 V
1 0 V
1 -1 V
1 0 V
1 0 V
stroke 4905 1223 M
1 0 V
1 0 V
1 0 V
1 0 V
1 -1 V
1 0 V
1 0 V
1 0 V
1 0 V
1 -1 V
1 0 V
1 0 V
1 0 V
1 0 V
1 -1 V
1 0 V
1 0 V
1 0 V
1 0 V
1 0 V
1 0 V
1 0 V
1 -1 V
1 0 V
1 0 V
1 0 V
1 0 V
1 0 V
0 -1 V
1 0 V
1 0 V
1 0 V
1 0 V
1 0 V
1 0 V
1 0 V
1 -1 V
1 0 V
1 0 V
1 0 V
1 0 V
1 -1 V
1 0 V
1 0 V
1 0 V
1 0 V
1 0 V
1 -1 V
1 0 V
1 0 V
1 0 V
1 0 V
1 0 V
1 0 V
1 -1 V
1 0 V
1 0 V
1 0 V
1 0 V
1 0 V
1 -1 V
1 0 V
1 0 V
1 0 V
1 0 V
1 -1 V
1 0 V
1 0 V
1 0 V
1 0 V
1 0 V
1 0 V
1 0 V
0 -1 V
1 0 V
1 0 V
1 0 V
1 0 V
1 0 V
1 -1 V
1 0 V
1 0 V
1 0 V
1 0 V
1 0 V
1 -1 V
1 0 V
1 0 V
1 0 V
1 0 V
1 0 V
1 0 V
1 0 V
0 -1 V
1 0 V
1 0 V
1 0 V
1 0 V
1 0 V
1 -1 V
1 0 V
1 0 V
1 0 V
1 0 V
stroke 5006 1207 M
1 0 V
1 0 V
1 0 V
1 -1 V
1 0 V
1 0 V
1 0 V
1 0 V
1 0 V
0 -1 V
1 0 V
1 0 V
1 0 V
1 0 V
1 0 V
1 0 V
0 -1 V
1 0 V
1 0 V
1 0 V
1 0 V
1 0 V
1 0 V
1 0 V
1 0 V
0 -1 V
1 0 V
1 0 V
1 0 V
1 0 V
1 0 V
0 -1 V
1 0 V
1 0 V
1 0 V
1 0 V
1 0 V
1 0 V
0 -1 V
1 0 V
1 0 V
1 0 V
1 0 V
1 0 V
1 0 V
1 0 V
1 0 V
0 -1 V
1 0 V
1 0 V
1 0 V
1 0 V
1 0 V
1 -1 V
1 0 V
1 0 V
1 0 V
1 0 V
1 0 V
1 -1 V
1 0 V
1 0 V
1 0 V
1 0 V
1 0 V
1 0 V
1 0 V
1 -1 V
1 0 V
1 0 V
1 0 V
1 0 V
1 0 V
1 -1 V
1 0 V
1 0 V
1 0 V
1 0 V
1 0 V
1 0 V
1 0 V
1 -1 V
1 0 V
1 0 V
1 0 V
1 0 V
1 0 V
1 -1 V
1 0 V
1 0 V
1 0 V
1 0 V
1 0 V
1 -1 V
1 0 V
1 0 V
1 0 V
1 0 V
1 0 V
1 0 V
1 0 V
1 -1 V
1 0 V
1 0 V
stroke 5104 1192 M
1 0 V
1 0 V
1 0 V
1 -1 V
1 0 V
1 0 V
1 0 V
1 0 V
1 0 V
1 0 V
0 -1 V
1 0 V
1 0 V
1 0 V
1 0 V
1 0 V
1 0 V
1 0 V
1 0 V
0 -1 V
1 0 V
1 0 V
1 0 V
1 0 V
1 0 V
1 -1 V
1 0 V
1 0 V
1 0 V
1 0 V
1 0 V
1 0 V
1 0 V
1 -1 V
1 0 V
1 0 V
1 0 V
1 0 V
1 0 V
1 0 V
1 -1 V
1 0 V
1 0 V
1 0 V
1 0 V
1 0 V
1 -1 V
1 0 V
1 0 V
1 0 V
1 0 V
1 0 V
1 0 V
1 0 V
1 0 V
0 -1 V
1 0 V
1 0 V
1 0 V
1 0 V
1 0 V
1 0 V
0 -1 V
1 0 V
1 0 V
1 0 V
1 0 V
1 0 V
1 0 V
1 -1 V
1 0 V
1 0 V
1 0 V
1 0 V
1 0 V
1 0 V
1 0 V
1 -1 V
1 0 V
1 0 V
1 0 V
1 0 V
1 0 V
1 0 V
1 -1 V
1 0 V
1 0 V
1 0 V
1 0 V
1 0 V
0 -1 V
1 0 V
1 0 V
1 0 V
1 0 V
1 0 V
1 0 V
1 0 V
1 0 V
1 -1 V
1 0 V
1 0 V
1 0 V
1 0 V
stroke 5203 1178 M
1 0 V
1 0 V
1 -1 V
1 0 V
1 0 V
1 0 V
1 0 V
1 0 V
1 0 V
1 0 V
1 -1 V
1 0 V
1 0 V
1 0 V
1 0 V
1 0 V
1 0 V
0 -1 V
1 0 V
1 0 V
1 0 V
1 0 V
1 0 V
1 0 V
1 -1 V
1 0 V
1 0 V
1 0 V
1 0 V
1 0 V
1 0 V
1 0 V
1 0 V
1 -1 V
1 0 V
1 0 V
1 0 V
1 0 V
1 0 V
1 0 V
0 -1 V
1 0 V
1 0 V
1 0 V
1 0 V
1 0 V
1 0 V
1 -1 V
1 0 V
1 0 V
1 0 V
1 0 V
1 0 V
1 0 V
1 0 V
1 0 V
1 -1 V
1 0 V
1 0 V
1 0 V
1 0 V
1 0 V
1 0 V
0 -1 V
1 0 V
1 0 V
1 0 V
1 0 V
1 0 V
1 0 V
1 -1 V
1 0 V
1 0 V
1 0 V
1 0 V
1 0 V
1 0 V
1 0 V
1 0 V
1 -1 V
1 0 V
1 0 V
1 0 V
1 0 V
1 0 V
1 0 V
0 -1 V
1 0 V
1 0 V
1 0 V
1 0 V
1 0 V
1 0 V
1 0 V
1 0 V
1 -1 V
1 0 V
1 0 V
1 0 V
1 0 V
1 0 V
1 0 V
1 -1 V
1 0 V
stroke 5303 1164 M
1 0 V
1 0 V
1 0 V
1 0 V
1 0 V
1 -1 V
1 0 V
1 0 V
1 0 V
1 0 V
1 0 V
1 0 V
1 0 V
1 0 V
1 -1 V
1 0 V
1 0 V
1 0 V
1 0 V
1 0 V
1 0 V
0 -1 V
1 0 V
1 0 V
1 0 V
1 0 V
1 0 V
1 0 V
1 0 V
1 -1 V
1 0 V
1 0 V
1 0 V
1 0 V
1 0 V
1 0 V
1 0 V
1 0 V
1 -1 V
1 0 V
1 0 V
1 0 V
1 0 V
1 0 V
1 -1 V
1 0 V
1 0 V
1 0 V
1 0 V
1 0 V
1 0 V
1 0 V
0 -1 V
1 0 V
1 0 V
1 0 V
1 0 V
1 0 V
1 0 V
1 0 V
1 0 V
1 0 V
1 -1 V
1 0 V
1 0 V
1 0 V
1 0 V
1 0 V
1 0 V
1 -1 V
1 0 V
1 0 V
1 0 V
1 0 V
1 0 V
1 0 V
1 0 V
1 0 V
1 -1 V
1 0 V
1 0 V
1 0 V
1 0 V
1 0 V
1 0 V
1 -1 V
1 0 V
1 0 V
1 0 V
1 0 V
1 0 V
1 0 V
1 -1 V
1 0 V
1 0 V
1 0 V
1 0 V
1 0 V
1 0 V
1 0 V
1 0 V
1 0 V
1 -1 V
1 0 V
stroke 5405 1151 M
1 0 V
1 0 V
1 0 V
1 0 V
1 0 V
1 -1 V
1 0 V
1 0 V
1 0 V
1 0 V
1 0 V
1 0 V
0 -1 V
1 0 V
1 0 V
1 0 V
1 0 V
1 0 V
1 0 V
1 0 V
1 0 V
1 0 V
1 0 V
1 -1 V
1 0 V
1 0 V
1 0 V
1 0 V
1 0 V
1 0 V
0 -1 V
1 0 V
1 0 V
1 0 V
1 0 V
1 0 V
1 0 V
1 0 V
1 0 V
1 0 V
1 0 V
1 -1 V
1 0 V
1 0 V
1 0 V
1 0 V
1 0 V
1 -1 V
1 0 V
1 0 V
1 0 V
1 0 V
1 0 V
1 0 V
1 0 V
0 -1 V
1 0 V
1 0 V
1 0 V
1 0 V
1 0 V
1 0 V
1 0 V
1 0 V
1 0 V
1 0 V
1 -1 V
1 0 V
1 0 V
1 0 V
1 0 V
1 0 V
1 0 V
1 -1 V
1 0 V
1 0 V
1 0 V
1 0 V
1 0 V
1 0 V
1 0 V
0 -1 V
1 0 V
1 0 V
1 0 V
1 0 V
1 0 V
1 0 V
1 0 V
1 0 V
1 0 V
1 -1 V
1 0 V
1 0 V
1 0 V
1 0 V
1 0 V
1 0 V
1 0 V
1 -1 V
1 0 V
1 0 V
1 0 V
1 0 V
stroke 5505 1139 M
1 0 V
1 0 V
1 0 V
0 -1 V
1 0 V
1 0 V
1 0 V
1 0 V
1 0 V
1 0 V
1 0 V
1 0 V
1 0 V
1 0 V
1 -1 V
1 0 V
1 0 V
1 0 V
1 0 V
1 0 V
1 0 V
1 -1 V
1 0 V
1 0 V
1 0 V
1 0 V
1 0 V
1 0 V
1 0 V
1 0 V
1 0 V
1 -1 V
1 0 V
1 0 V
1 0 V
1 0 V
1 0 V
1 0 V
1 0 V
0 -1 V
1 0 V
1 0 V
1 0 V
1 0 V
1 0 V
1 0 V
1 0 V
1 -1 V
1 0 V
1 0 V
1 0 V
1 0 V
1 0 V
1 0 V
1 0 V
1 0 V
1 0 V
1 -1 V
1 0 V
1 0 V
1 0 V
1 0 V
1 0 V
1 0 V
1 0 V
1 -1 V
1 0 V
1 0 V
1 0 V
1 0 V
1 0 V
1 0 V
1 0 V
1 -1 V
1 0 V
1 0 V
1 0 V
1 0 V
1 0 V
1 0 V
1 0 V
1 0 V
1 0 V
1 0 V
0 -1 V
1 0 V
1 0 V
1 0 V
1 0 V
1 0 V
1 0 V
1 0 V
1 -1 V
1 0 V
1 0 V
1 0 V
1 0 V
1 0 V
1 0 V
1 0 V
1 -1 V
1 0 V
1 0 V
1 0 V
stroke 5606 1127 M
1 0 V
1 0 V
1 0 V
1 0 V
1 0 V
1 0 V
1 -1 V
1 0 V
1 0 V
1 0 V
1 0 V
1 0 V
1 0 V
1 0 V
1 -1 V
1 0 V
1 0 V
1 0 V
1 0 V
1 0 V
1 0 V
1 0 V
1 0 V
1 0 V
1 0 V
1 -1 V
1 0 V
1 0 V
1 0 V
1 0 V
1 0 V
1 0 V
1 0 V
1 -1 V
1 0 V
1 0 V
1 0 V
1 0 V
1 0 V
1 0 V
1 0 V
0 -1 V
1 0 V
1 0 V
1 0 V
1 0 V
1 0 V
1 0 V
1 0 V
1 0 V
1 0 V
1 0 V
1 0 V
0 -1 V
1 0 V
1 0 V
1 0 V
1 0 V
1 0 V
1 0 V
1 0 V
1 0 V
0 -1 V
1 0 V
1 0 V
1 0 V
1 0 V
1 0 V
1 0 V
1 0 V
1 0 V
1 -1 V
1 0 V
1 0 V
1 0 V
1 0 V
1 0 V
1 0 V
1 0 V
1 0 V
1 0 V
1 0 V
1 -1 V
1 0 V
1 0 V
1 0 V
1 0 V
1 0 V
1 0 V
1 0 V
1 -1 V
1 0 V
1 0 V
1 0 V
1 0 V
1 0 V
1 0 V
1 0 V
1 0 V
1 0 V
1 0 V
1 -1 V
1 0 V
1 0 V
stroke 5707 1116 M
1 0 V
1 0 V
1 0 V
1 0 V
1 0 V
1 -1 V
1 0 V
1 0 V
1 0 V
1 0 V
1 0 V
1 0 V
1 0 V
1 0 V
0 -1 V
1 0 V
1 0 V
1 0 V
1 0 V
1 0 V
1 0 V
1 0 V
1 0 V
1 0 V
1 0 V
1 0 V
0 -1 V
1 0 V
1 0 V
1 0 V
1 0 V
1 0 V
1 0 V
1 0 V
1 0 V
0 -1 V
1 0 V
1 0 V
1 0 V
1 0 V
1 0 V
1 0 V
1 0 V
1 0 V
1 -1 V
1 0 V
1 0 V
1 0 V
1 0 V
1 0 V
1 0 V
1 0 V
1 0 V
1 0 V
1 0 V
1 -1 V
1 0 V
1 0 V
1 0 V
1 0 V
1 0 V
1 0 V
1 0 V
1 0 V
1 -1 V
1 0 V
1 0 V
1 0 V
1 0 V
1 0 V
1 0 V
1 0 V
1 -1 V
1 0 V
1 0 V
1 0 V
1 0 V
1 0 V
1 0 V
1 0 V
1 0 V
1 0 V
1 0 V
1 0 V
1 -1 V
1 0 V
1 0 V
1 0 V
1 0 V
1 0 V
1 0 V
1 0 V
1 0 V
1 -1 V
1 0 V
1 0 V
1 0 V
1 0 V
1 0 V
1 0 V
1 0 V
1 0 V
1 0 V
1 0 V
stroke 5808 1106 M
1 -1 V
1 0 V
1 0 V
1 0 V
1 0 V
1 0 V
1 0 V
1 0 V
1 0 V
0 -1 V
1 0 V
1 0 V
1 0 V
1 0 V
1 0 V
1 0 V
1 0 V
1 0 V
1 -1 V
1 0 V
1 0 V
1 0 V
1 0 V
1 0 V
1 0 V
1 0 V
1 0 V
1 0 V
1 0 V
1 0 V
1 -1 V
1 0 V
1 0 V
1 0 V
1 0 V
1 0 V
1 0 V
1 0 V
1 0 V
1 -1 V
1 0 V
1 0 V
1 0 V
1 0 V
1 0 V
1 0 V
1 0 V
1 0 V
0 -1 V
1 0 V
1 0 V
1 0 V
1 0 V
1 0 V
1 0 V
1 0 V
1 0 V
1 0 V
1 0 V
1 0 V
1 -1 V
1 0 V
1 0 V
1 0 V
1 0 V
1 0 V
1 0 V
1 0 V
1 0 V
1 -1 V
1 0 V
1 0 V
1 0 V
1 0 V
1 0 V
1 0 V
1 0 V
1 0 V
1 0 V
0 -1 V
1 0 V
1 0 V
1 0 V
1 0 V
1 0 V
1 0 V
1 0 V
1 0 V
1 0 V
1 0 V
1 0 V
1 -1 V
1 0 V
1 0 V
1 0 V
1 0 V
1 0 V
1 0 V
1 0 V
1 0 V
1 -1 V
1 0 V
1 0 V
1 0 V
stroke 5909 1095 M
1 0 V
1 0 V
1 0 V
1 0 V
1 0 V
1 0 V
1 0 V
1 0 V
1 0 V
0 -1 V
1 0 V
1 0 V
1 0 V
1 0 V
1 0 V
1 0 V
1 0 V
1 0 V
1 -1 V
1 0 V
1 0 V
1 0 V
1 0 V
1 0 V
1 0 V
1 0 V
1 0 V
1 0 V
1 -1 V
1 0 V
1 0 V
1 0 V
1 0 V
1 0 V
1 0 V
1 0 V
1 0 V
1 0 V
1 0 V
1 0 V
1 -1 V
1 0 V
1 0 V
1 0 V
1 0 V
1 0 V
1 0 V
1 0 V
1 0 V
1 -1 V
1 0 V
1 0 V
1 0 V
1 0 V
1 0 V
1 0 V
1 0 V
1 0 V
1 0 V
0 -1 V
1 0 V
1 0 V
1 0 V
1 0 V
1 0 V
1 0 V
1 0 V
1 0 V
1 0 V
1 0 V
1 0 V
1 0 V
1 -1 V
1 0 V
1 0 V
1 0 V
1 0 V
1 0 V
1 0 V
1 0 V
1 0 V
1 0 V
0 -1 V
1 0 V
1 0 V
1 0 V
1 0 V
1 0 V
1 0 V
1 0 V
1 0 V
1 0 V
0 -1 V
1 0 V
1 0 V
1 0 V
1 0 V
1 0 V
1 0 V
1 0 V
1 0 V
1 0 V
1 0 V
1 0 V
stroke 6009 1086 M
1 0 V
1 0 V
0 -1 V
1 0 V
1 0 V
1 0 V
1 0 V
1 0 V
1 0 V
1 0 V
1 0 V
1 0 V
1 -1 V
1 0 V
1 0 V
1 0 V
1 0 V
1 0 V
1 0 V
1 0 V
1 0 V
1 0 V
1 0 V
1 0 V
1 0 V
0 -1 V
1 0 V
1 0 V
1 0 V
1 0 V
1 0 V
1 0 V
1 0 V
1 0 V
1 0 V
1 -1 V
1 0 V
1 0 V
1 0 V
1 0 V
1 0 V
1 0 V
1 0 V
1 0 V
1 0 V
0 -1 V
1 0 V
1 0 V
1 0 V
1 0 V
1 0 V
1 0 V
1 0 V
1 0 V
1 0 V
1 0 V
1 0 V
1 0 V
1 0 V
1 -1 V
1 0 V
1 0 V
1 0 V
1 0 V
1 0 V
1 0 V
1 0 V
1 0 V
1 -1 V
1 0 V
1 0 V
1 0 V
1 0 V
1 0 V
1 0 V
1 0 V
1 0 V
1 0 V
1 -1 V
1 0 V
1 0 V
1 0 V
1 0 V
1 0 V
1 0 V
1 0 V
1 0 V
1 0 V
1 0 V
1 0 V
1 0 V
1 -1 V
1 0 V
1 0 V
1 0 V
1 0 V
1 0 V
1 0 V
1 0 V
1 0 V
1 0 V
1 -1 V
1 0 V
1 0 V
stroke 6110 1076 M
1 0 V
1 0 V
1 0 V
1 0 V
1 0 V
1 0 V
1 0 V
1 0 V
1 0 V
1 0 V
1 0 V
0 -1 V
1 0 V
1 0 V
1 0 V
1 0 V
1 0 V
1 0 V
1 0 V
1 0 V
1 0 V
1 -1 V
1 0 V
1 0 V
1 0 V
1 0 V
1 0 V
1 0 V
1 0 V
1 0 V
1 0 V
1 -1 V
1 0 V
1 0 V
1 0 V
1 0 V
1 0 V
1 0 V
1 0 V
1 0 V
1 0 V
1 0 V
1 0 V
1 0 V
1 -1 V
1 0 V
1 0 V
1 0 V
1 0 V
1 0 V
1 0 V
1 0 V
1 0 V
1 0 V
1 0 V
0 -1 V
1 0 V
1 0 V
1 0 V
1 0 V
1 0 V
1 0 V
1 0 V
1 0 V
1 0 V
1 0 V
1 -1 V
1 0 V
1 0 V
1 0 V
1 0 V
1 0 V
1 0 V
1 0 V
1 0 V
1 0 V
1 0 V
1 0 V
1 0 V
1 -1 V
1 0 V
1 0 V
1 0 V
1 0 V
1 0 V
1 0 V
1 0 V
1 0 V
1 0 V
1 -1 V
1 0 V
1 0 V
1 0 V
1 0 V
1 0 V
1 0 V
1 0 V
1 0 V
1 0 V
1 0 V
0 -1 V
1 0 V
1 0 V
1 0 V
stroke 6211 1067 M
1 0 V
1 0 V
1 0 V
1 0 V
1 0 V
1 0 V
1 0 V
1 0 V
1 0 V
1 0 V
1 0 V
0 -1 V
1 0 V
1 0 V
1 0 V
1 0 V
1 0 V
1 0 V
1 0 V
1 0 V
1 0 V
1 0 V
1 -1 V
1 0 V
1 0 V
1 0 V
1 0 V
1 0 V
1 0 V
1 0 V
1 0 V
1 0 V
1 0 V
1 0 V
1 0 V
1 0 V
1 -1 V
1 0 V
1 0 V
1 0 V
1 0 V
1 0 V
1 0 V
1 0 V
1 0 V
1 0 V
1 0 V
0 -1 V
1 0 V
1 0 V
1 0 V
1 0 V
1 0 V
1 0 V
1 0 V
1 0 V
1 0 V
1 0 V
1 -1 V
1 0 V
1 0 V
1 0 V
1 0 V
1 0 V
1 0 V
1 0 V
1 0 V
1 0 V
1 0 V
1 0 V
1 0 V
1 0 V
1 0 V
0 -1 V
1 0 V
1 0 V
1 0 V
1 0 V
1 0 V
1 0 V
1 0 V
1 0 V
1 0 V
1 0 V
1 -1 V
1 0 V
1 0 V
1 0 V
1 0 V
1 0 V
1 0 V
1 0 V
1 0 V
1 0 V
1 0 V
1 -1 V
1 0 V
1 0 V
1 0 V
1 0 V
1 0 V
1 0 V
1 0 V
1 0 V
stroke 6312 1059 M
1 0 V
1 0 V
1 0 V
1 0 V
1 0 V
1 -1 V
1 0 V
1 0 V
1 0 V
1 0 V
1 0 V
1 0 V
1 0 V
1 0 V
1 0 V
1 0 V
1 -1 V
1 0 V
1 0 V
1 0 V
1 0 V
1 0 V
1 0 V
1 0 V
1 0 V
1 0 V
1 0 V
1 -1 V
1 0 V
1 0 V
1 0 V
1 0 V
1 0 V
1 0 V
1 0 V
1 0 V
1 0 V
1 0 V
1 0 V
1 0 V
1 0 V
1 -1 V
1 0 V
1 0 V
1 0 V
1 0 V
1 0 V
1 0 V
1 0 V
1 0 V
1 0 V
1 0 V
1 -1 V
1 0 V
1 0 V
1 0 V
1 0 V
1 0 V
1 0 V
1 0 V
1 0 V
1 0 V
1 0 V
1 0 V
1 0 V
1 0 V
1 0 V
1 -1 V
1 0 V
1 0 V
1 0 V
1 0 V
1 0 V
1 0 V
1 0 V
1 0 V
1 0 V
1 0 V
1 -1 V
1 0 V
1 0 V
1 0 V
1 0 V
1 0 V
1 0 V
1 0 V
1 0 V
1 0 V
1 0 V
1 -1 V
1 0 V
1 0 V
1 0 V
1 0 V
1 0 V
1 0 V
1 0 V
1 0 V
1 0 V
1 0 V
1 0 V
1 0 V
1 0 V
1 0 V
stroke 6416 1051 M
0 -1 V
1 0 V
1 0 V
1 0 V
1 0 V
1 0 V
1 0 V
1 0 V
1 0 V
1 0 V
1 0 V
1 0 V
1 -1 V
1 0 V
1 0 V
1 0 V
1 0 V
1 0 V
1 0 V
1 0 V
1 0 V
1 0 V
1 0 V
1 -1 V
1 0 V
1 0 V
1 0 V
1 0 V
1 0 V
1 0 V
1 0 V
1 0 V
1 0 V
1 0 V
1 0 V
1 0 V
1 0 V
1 0 V
1 0 V
1 -1 V
1 0 V
1 0 V
1 0 V
1 0 V
1 0 V
1 0 V
1 0 V
1 0 V
1 0 V
1 0 V
0 -1 V
1 0 V
1 0 V
1 0 V
1 0 V
1 0 V
1 0 V
1 0 V
1 0 V
1 0 V
1 0 V
1 0 V
1 0 V
1 0 V
1 0 V
1 0 V
1 -1 V
1 0 V
1 0 V
1 0 V
1 0 V
1 0 V
1 0 V
1 0 V
1 0 V
1 0 V
1 0 V
1 0 V
1 -1 V
1 0 V
1 0 V
1 0 V
1 0 V
1 0 V
1 0 V
1 0 V
1 0 V
1 0 V
1 0 V
1 0 V
0 -1 V
1 0 V
1 0 V
1 0 V
1 0 V
1 0 V
1 0 V
1 0 V
1 0 V
1 0 V
1 0 V
1 0 V
1 0 V
1 0 V
stroke 6517 1043 M
1 0 V
1 0 V
1 -1 V
1 0 V
1 0 V
1 0 V
1 0 V
1 0 V
1 0 V
1 0 V
1 0 V
1 0 V
1 0 V
1 0 V
0 -1 V
1 0 V
1 0 V
1 0 V
1 0 V
1 0 V
1 0 V
1 0 V
1 0 V
1 0 V
1 0 V
1 0 V
1 -1 V
1 0 V
1 0 V
1 0 V
1 0 V
1 0 V
1 0 V
1 0 V
1 0 V
1 0 V
1 0 V
1 0 V
1 0 V
1 0 V
1 0 V
1 0 V
1 0 V
0 -1 V
1 0 V
1 0 V
1 0 V
1 0 V
1 0 V
1 0 V
1 0 V
1 0 V
1 0 V
1 0 V
1 0 V
1 -1 V
1 0 V
1 0 V
1 0 V
1 0 V
1 0 V
1 0 V
1 0 V
1 0 V
1 0 V
1 0 V
1 0 V
1 -1 V
1 0 V
1 0 V
1 0 V
1 0 V
1 0 V
1 0 V
1 0 V
1 0 V
1 0 V
1 0 V
1 0 V
1 0 V
1 0 V
1 0 V
1 0 V
1 -1 V
1 0 V
1 0 V
1 0 V
1 0 V
1 0 V
1 0 V
1 0 V
1 0 V
1 0 V
1 0 V
1 0 V
1 -1 V
1 0 V
1 0 V
1 0 V
1 0 V
1 0 V
1 0 V
1 0 V
1 0 V
stroke 6619 1035 M
1 0 V
1 0 V
1 0 V
1 0 V
1 0 V
1 0 V
1 0 V
1 0 V
0 -1 V
1 0 V
1 0 V
1 0 V
1 0 V
1 0 V
1 0 V
1 0 V
1 0 V
1 0 V
1 0 V
1 0 V
1 -1 V
1 0 V
1 0 V
1 0 V
1 0 V
1 0 V
1 0 V
1 0 V
1 0 V
1 0 V
1 0 V
1 0 V
1 0 V
1 -1 V
1 0 V
1 0 V
1 0 V
1 0 V
1 0 V
1 0 V
1 0 V
1 0 V
1 0 V
1 0 V
1 0 V
1 0 V
1 0 V
1 0 V
1 0 V
1 0 V
0 -1 V
1 0 V
1 0 V
1 0 V
1 0 V
1 0 V
1 0 V
1 0 V
1 0 V
1 0 V
1 0 V
1 0 V
1 -1 V
1 0 V
1 0 V
1 0 V
1 0 V
1 0 V
1 0 V
1 0 V
1 0 V
1 0 V
1 0 V
1 0 V
1 0 V
1 -1 V
1 0 V
1 0 V
1 0 V
1 0 V
1 0 V
1 0 V
1 0 V
1 0 V
1 0 V
1 0 V
1 0 V
1 0 V
1 0 V
1 0 V
1 0 V
1 0 V
0 -1 V
1 0 V
1 0 V
1 0 V
1 0 V
1 0 V
1 0 V
1 0 V
1 0 V
1 0 V
1 0 V
1 0 V
stroke 6720 1028 M
1 0 V
1 -1 V
1 0 V
1 0 V
1 0 V
1 0 V
1 0 V
1 0 V
1 0 V
1 0 V
1 0 V
1 0 V
1 0 V
1 0 V
1 -1 V
1 0 V
1 0 V
1 0 V
1 0 V
1 0 V
1 0 V
1 0 V
1 0 V
1 0 V
1 0 V
1 0 V
1 0 V
1 0 V
1 0 V
1 0 V
1 0 V
1 -1 V
1 0 V
1 0 V
1 0 V
1 0 V
1 0 V
1 0 V
1 0 V
1 0 V
1 0 V
1 0 V
1 0 V
1 0 V
0 -1 V
1 0 V
1 0 V
1 0 V
1 0 V
1 0 V
1 0 V
1 0 V
1 0 V
1 0 V
1 0 V
1 0 V
1 0 V
1 0 V
1 0 V
1 0 V
1 0 V
1 0 V
1 -1 V
1 0 V
1 0 V
1 0 V
1 0 V
1 0 V
1 0 V
1 0 V
1 0 V
1 0 V
1 0 V
1 0 V
1 0 V
0 -1 V
1 0 V
1 0 V
1 0 V
1 0 V
1 0 V
1 0 V
1 0 V
1 0 V
1 0 V
1 0 V
1 0 V
1 0 V
1 0 V
1 -1 V
1 0 V
1 0 V
1 0 V
1 0 V
1 0 V
1 0 V
1 0 V
1 0 V
1 0 V
1 0 V
1 0 V
1 0 V
1 0 V
1 0 V
stroke 6822 1021 M
1 0 V
1 0 V
1 -1 V
1 0 V
1 0 V
1 0 V
1 0 V
1 0 V
1 0 V
1 0 V
1 0 V
1 0 V
1 0 V
1 0 V
1 0 V
1 0 V
0 -1 V
1 0 V
% End plot #2
stroke
LTb
LCb setrgbcolor
980 4799 N
980 640 L
5859 0 V
0 4159 V
-5859 0 V
Z stroke
1.000 UP
1.000 UL
LTb
LCb setrgbcolor
1.000 UL
LTb
1.00 1.00 1.00 C 1.000 1181 1147 1061 1061 BoxColFill
LCb setrgbcolor
1181 1147 M
0 1061 V
1061 0 V
0 -1061 V
-1061 0 V
stroke
LTb
LCb setrgbcolor
0.300 UL
LT0
LCa setrgbcolor
1712 1596 M
stroke
1.000 UL
LTb
LCb setrgbcolor
1712 1596 M
-63 0 V
63 0 R
63 0 V
stroke
LTb
LCb setrgbcolor
0.300 UL
LT0
LCa setrgbcolor
1712 2005 M
-48 -2 V
-48 -6 V
-47 -10 V
-45 -14 V
-43 -18 V
-42 -22 V
-38 -24 V
-35 -28 V
-32 -31 V
-28 -33 V
-24 -35 V
-20 -38 V
-15 -38 V
-11 -40 V
-6 -41 V
-1 -41 V
4 -40 V
9 -40 V
13 -40 V
18 -38 V
22 -36 V
27 -34 V
30 -32 V
34 -29 V
37 -26 V
40 -23 V
43 -19 V
44 -16 V
47 -11 V
47 -8 V
48 -4 V
48 1 V
48 4 V
47 8 V
46 13 V
45 16 V
42 20 V
39 23 V
37 27 V
33 29 V
30 33 V
26 34 V
21 37 V
17 38 V
13 39 V
8 40 V
3 41 V
-2 41 V
-7 40 V
-11 40 V
-16 39 V
-21 37 V
-24 35 V
-29 33 V
-32 30 V
-36 27 V
-39 24 V
-42 21 V
-44 17 V
-45 14 V
-47 9 V
-48 5 V
-48 2 V
stroke
1.000 UL
LTb
LCb setrgbcolor
1712 2005 M
-63 0 V
63 0 R
63 0 V
stroke
LTb
LCb setrgbcolor
0.300 UL
LT0
LCa setrgbcolor
1712 1596 M
stroke
1.000 UL
LTb
LCb setrgbcolor
1712 1596 M
0 -63 V
0 63 R
0 63 V
stroke
LTb
LCb setrgbcolor
0.300 UL
LT0
LCa setrgbcolor
1953 1596 M
-1 21 V
-3 20 V
-6 20 V
-9 19 V
-10 18 V
-13 18 V
-14 16 V
-17 15 V
-18 13 V
-20 12 V
-21 10 V
-22 9 V
-22 6 V
-24 5 V
-24 2 V
-24 0 V
-24 -1 V
-24 -4 V
-23 -5 V
-22 -8 V
-22 -9 V
-20 -12 V
-19 -12 V
-17 -15 V
-15 -15 V
-14 -17 V
-11 -18 V
-9 -19 V
-7 -20 V
-5 -20 V
-2 -20 V
0 -21 V
3 -20 V
5 -20 V
7 -19 V
10 -19 V
11 -18 V
14 -17 V
16 -15 V
17 -14 V
19 -13 V
21 -11 V
21 -9 V
23 -7 V
23 -5 V
24 -4 V
24 -1 V
24 1 V
24 3 V
23 4 V
23 7 V
22 9 V
21 10 V
19 12 V
18 14 V
16 15 V
14 17 V
13 17 V
10 19 V
8 19 V
5 20 V
4 20 V
0 21 V
stroke
1.000 UL
LTb
LCb setrgbcolor
1953 1596 M
0 -63 V
0 63 R
0 63 V
stroke
LTb
LCb setrgbcolor
0.300 UL
LT0
LCa setrgbcolor
2195 1596 M
-3 41 V
-7 40 V
-12 40 V
-16 38 V
-21 37 V
-26 35 V
-29 32 V
-33 30 V
-36 27 V
-39 24 V
-42 20 V
-44 17 V
-46 13 V
-47 9 V
-48 5 V
-48 1 V
-48 -4 V
-48 -7 V
-46 -11 V
-45 -15 V
-43 -19 V
-40 -22 V
-38 -26 V
-34 -29 V
-31 -31 V
-27 -34 V
-22 -36 V
-19 -38 V
-14 -39 V
-9 -40 V
-4 -41 V
0 -41 V
5 -40 V
10 -40 V
15 -39 V
19 -37 V
24 -36 V
27 -34 V
32 -31 V
34 -28 V
39 -25 V
40 -22 V
44 -18 V
45 -14 V
46 -11 V
48 -7 V
48 -2 V
48 1 V
48 6 V
47 10 V
45 13 V
44 17 V
42 21 V
38 25 V
36 27 V
32 30 V
29 33 V
24 36 V
21 37 V
16 38 V
11 40 V
6 40 V
2 41 V
stroke
1.000 UL
LTb
LCb setrgbcolor
2195 1596 M
0 -63 V
0 63 R
0 63 V
stroke
LTb
LCb setrgbcolor
0.300 UL
LT0
LCa setrgbcolor
1712 1596 M
483 0 V
-483 0 R
418 205 V
1712 1596 M
241 354 V
1712 1596 M
0 409 V
0 -409 R
-241 354 V
241 -354 R
-418 205 V
418 -205 R
-483 0 V
483 0 R
1294 1392 L
418 204 R
1471 1243 L
241 353 R
0 -408 V
0 408 R
241 -353 V
-241 353 R
418 -204 V
-418 204 R
483 0 V
-483 0 R
418 205 V
stroke
LTb
1748 2119 M
[ [(Helvetica) 140.0 0.0 true true 0 (K=0.1)]
] -46.7 MCshow
1.000 UP
1.000 UL
LTb
LCb setrgbcolor
% Begin plot #1
1.000 UP
1.000 UL
LT0
0.00 0.00 1.00 C /Helvetica findfont 200 scalefont setfont
/vshift -66 def
1475 1240 CircleF
% End plot #1
% Begin plot #2
1.000 UP
1.000 UL
LT1
0.00 0.00 1.00 C /Helvetica findfont 200 scalefont setfont
1721 2005 CircleF
2047 1302 CircleF
1256 1731 CircleF
2069 1871 CircleF
1506 1227 CircleF
1435 1931 CircleF
2158 1441 CircleF
1269 1433 CircleF
1826 1993 CircleF
1837 1202 CircleF
1300 1809 CircleF
2140 1785 CircleF
1485 1236 CircleF
1681 2004 CircleF
2137 1403 CircleF
1229 1602 CircleF
1906 1970 CircleF
1752 1189 CircleF
1379 1892 CircleF
2191 1544 CircleF
1367 1310 CircleF
1781 2001 CircleF
2014 1277 CircleF
1231 1561 CircleF
2113 1824 CircleF
1654 1191 CircleF
1355 1871 CircleF
2191 1543 CircleF
1319 1360 CircleF
1871 1982 CircleF
1927 1231 CircleF
1263 1747 CircleF
2114 1822 CircleF
1565 1207 CircleF
1516 1969 CircleF
2181 1500 CircleF
1264 1445 CircleF
1828 1993 CircleF
1895 1218 CircleF
1279 1778 CircleF
2188 1665 CircleF
1582 1203 CircleF
1562 1985 CircleF
2162 1448 CircleF
1232 1553 CircleF
1963 1945 CircleF
1762 1190 CircleF
1345 1861 CircleF
2195 1608 CircleF
1466 1245 CircleF
1657 2002 CircleF
2104 1358 CircleF
1241 1508 CircleF
1968 1943 CircleF
1747 1189 CircleF
1266 1754 CircleF
2194 1580 CircleF
1365 1312 CircleF
1683 2004 CircleF
2123 1383 CircleF
1230 1618 CircleF
1988 1931 CircleF
1635 1193 CircleF
1431 1929 CircleF
2192 1556 CircleF
1392 1291 CircleF
1849 1988 CircleF
2094 1346 CircleF
1243 1692 CircleF
2089 1852 CircleF
1555 1210 CircleF
1460 1945 CircleF
2180 1497 CircleF
1339 1337 CircleF
1877 1980 CircleF
1991 1263 CircleF
1269 1759 CircleF
2150 1768 CircleF
1597 1200 CircleF
1574 1988 CircleF
2185 1515 CircleF
1238 1518 CircleF
1844 1989 CircleF
1876 1212 CircleF
1254 1724 CircleF
2185 1677 CircleF
1481 1238 CircleF
1622 1998 CircleF
2113 1368 CircleF
1230 1611 CircleF
2008 1919 CircleF
1660 1190 CircleF
1417 1920 CircleF
2194 1625 CircleF
1300 1383 CircleF
1719 2005 CircleF
1973 1252 CircleF
1259 1737 CircleF
2174 1716 CircleF
% End plot #2
1.000 UL
LTb
LCb setrgbcolor
1712 1596 M
483 0 V
1.000 UP
stroke
LTb
LCb setrgbcolor
1.000 UL
LTb
1.00 1.00 1.00 C 1.000 2319 3516 1060 1060 BoxColFill
LCb setrgbcolor
2319 3516 M
0 1060 V
1060 0 V
0 -1060 V
-1060 0 V
stroke
LTb
LCb setrgbcolor
0.300 UL
LT0
LCa setrgbcolor
2850 3965 M
stroke
1.000 UL
LTb
LCb setrgbcolor
2850 3965 M
-63 0 V
63 0 R
63 0 V
stroke
LTb
LCb setrgbcolor
0.300 UL
LT0
LCa setrgbcolor
2850 4373 M
-49 -2 V
-47 -6 V
-47 -10 V
-45 -14 V
-44 -18 V
-41 -21 V
-38 -25 V
-35 -28 V
-32 -30 V
-28 -34 V
-24 -35 V
-20 -37 V
-15 -39 V
-11 -40 V
-6 -40 V
-1 -41 V
4 -41 V
9 -40 V
13 -39 V
18 -38 V
22 -36 V
27 -34 V
30 -32 V
34 -29 V
37 -26 V
40 -23 V
42 -19 V
45 -16 V
46 -11 V
47 -8 V
48 -4 V
49 1 V
48 4 V
47 8 V
46 13 V
44 16 V
42 20 V
40 23 V
36 27 V
33 29 V
30 32 V
26 35 V
21 36 V
17 38 V
13 40 V
8 40 V
3 41 V
-2 41 V
-7 40 V
-11 40 V
-16 38 V
-20 37 V
-25 35 V
-29 33 V
-32 30 V
-36 27 V
-39 25 V
-41 20 V
-44 17 V
-46 14 V
-47 9 V
-47 6 V
-49 1 V
stroke
1.000 UL
LTb
LCb setrgbcolor
2850 4373 M
-63 0 V
63 0 R
63 0 V
stroke
LTb
LCb setrgbcolor
0.300 UL
LT0
LCa setrgbcolor
2850 3965 M
stroke
1.000 UL
LTb
LCb setrgbcolor
2850 3965 M
0 -63 V
0 63 R
0 63 V
stroke
LTb
LCb setrgbcolor
0.300 UL
LT0
LCa setrgbcolor
3091 3965 M
-2 20 V
-3 20 V
-6 20 V
-8 19 V
-11 19 V
-12 17 V
-15 16 V
-16 15 V
-19 14 V
-19 12 V
-21 10 V
-22 8 V
-23 6 V
-24 5 V
-23 2 V
-25 1 V
-24 -2 V
-23 -3 V
-23 -6 V
-23 -8 V
-21 -9 V
-20 -11 V
-19 -13 V
-17 -14 V
-16 -16 V
-13 -17 V
-12 -18 V
-9 -19 V
-7 -19 V
-4 -20 V
-2 -21 V
0 -20 V
2 -20 V
5 -20 V
8 -20 V
9 -18 V
12 -18 V
14 -17 V
15 -15 V
18 -15 V
19 -12 V
20 -11 V
22 -9 V
22 -7 V
24 -6 V
23 -3 V
25 -1 V
24 1 V
23 2 V
24 5 V
23 7 V
21 9 V
21 10 V
20 12 V
17 14 V
17 15 V
14 17 V
12 17 V
10 19 V
8 19 V
6 20 V
3 20 V
1 20 V
stroke
1.000 UL
LTb
LCb setrgbcolor
3091 3965 M
0 -63 V
0 63 R
0 63 V
stroke
LTb
LCb setrgbcolor
0.300 UL
LT0
LCa setrgbcolor
3332 3965 M
-3 41 V
-7 40 V
-12 39 V
-16 39 V
-21 37 V
-25 34 V
-30 33 V
-32 30 V
-37 27 V
-39 23 V
-42 21 V
-44 16 V
-45 13 V
-48 9 V
-47 5 V
-49 1 V
-48 -3 V
-47 -8 V
-46 -11 V
-45 -15 V
-43 -19 V
-40 -22 V
-38 -26 V
-34 -28 V
-31 -32 V
-27 -34 V
-23 -36 V
-18 -37 V
-14 -39 V
-9 -41 V
-4 -40 V
0 -41 V
5 -40 V
10 -40 V
15 -39 V
19 -38 V
23 -35 V
28 -34 V
31 -31 V
35 -28 V
38 -25 V
41 -22 V
43 -18 V
45 -14 V
47 -11 V
47 -7 V
49 -2 V
48 1 V
47 6 V
47 10 V
46 13 V
43 17 V
42 21 V
39 25 V
35 27 V
33 30 V
28 33 V
25 35 V
20 37 V
16 39 V
11 40 V
6 40 V
2 41 V
stroke
1.000 UL
LTb
LCb setrgbcolor
3332 3965 M
0 -63 V
0 63 R
0 63 V
stroke
LTb
LCb setrgbcolor
0.300 UL
LT0
LCa setrgbcolor
2850 3965 M
482 0 V
-482 0 R
417 204 V
2850 3965 M
241 353 V
2850 3965 M
0 408 V
0 -408 R
-242 353 V
242 -353 R
-418 204 V
418 -204 R
-483 0 V
483 0 R
2432 3761 L
418 204 R
2608 3611 L
242 354 R
0 -408 V
0 408 R
241 -354 V
-241 354 R
417 -204 V
-417 204 R
482 0 V
-482 0 R
417 204 V
stroke
LTb
2885 4487 M
[ [(Helvetica) 140.0 0.0 true true 0 (K=1)]
] -46.7 MCshow
1.000 UP
1.000 UL
LTb
LCb setrgbcolor
% Begin plot #1
1.000 UP
1.000 UL
LT0
0.00 0.00 1.00 C /Helvetica findfont 200 scalefont setfont
2759 4366 CircleF
% End plot #1
% Begin plot #2
1.000 UP
1.000 UL
LT1
0.00 0.00 1.00 C /Helvetica findfont 200 scalefont setfont
2753 4365 CircleF
2747 4364 CircleF
2741 4363 CircleF
2736 4361 CircleF
2730 4360 CircleF
2724 4359 CircleF
2719 4358 CircleF
2713 4356 CircleF
2708 4355 CircleF
2703 4354 CircleF
2697 4352 CircleF
2692 4351 CircleF
2687 4349 CircleF
2681 4347 CircleF
2676 4346 CircleF
2671 4344 CircleF
2666 4342 CircleF
2661 4341 CircleF
2656 4339 CircleF
2651 4337 CircleF
2646 4335 CircleF
2641 4333 CircleF
2637 4331 CircleF
2632 4329 CircleF
2627 4327 CircleF
2622 4325 CircleF
2618 4323 CircleF
2613 4321 CircleF
2609 4318 CircleF
2604 4316 CircleF
2599 4314 CircleF
2595 4312 CircleF
2591 4309 CircleF
2586 4307 CircleF
2582 4304 CircleF
2578 4302 CircleF
2573 4299 CircleF
2569 4297 CircleF
2565 4294 CircleF
2561 4292 CircleF
2557 4289 CircleF
2553 4287 CircleF
2549 4284 CircleF
2545 4281 CircleF
2541 4278 CircleF
2537 4276 CircleF
2533 4273 CircleF
2529 4270 CircleF
2525 4267 CircleF
2521 4264 CircleF
2518 4261 CircleF
2514 4258 CircleF
2510 4255 CircleF
2507 4252 CircleF
2503 4249 CircleF
2500 4246 CircleF
2496 4243 CircleF
2493 4239 CircleF
2489 4236 CircleF
2486 4233 CircleF
2482 4229 CircleF
2479 4226 CircleF
2476 4223 CircleF
2472 4219 CircleF
2469 4216 CircleF
2466 4212 CircleF
2463 4209 CircleF
2460 4205 CircleF
2457 4202 CircleF
2454 4198 CircleF
2451 4194 CircleF
2448 4191 CircleF
2445 4187 CircleF
2442 4183 CircleF
2439 4179 CircleF
2436 4176 CircleF
2434 4172 CircleF
2431 4168 CircleF
2428 4164 CircleF
2426 4160 CircleF
2423 4156 CircleF
2421 4152 CircleF
2418 4148 CircleF
2416 4143 CircleF
2413 4139 CircleF
2411 4135 CircleF
2409 4131 CircleF
2407 4126 CircleF
2404 4122 CircleF
2402 4117 CircleF
2400 4113 CircleF
2398 4108 CircleF
2396 4104 CircleF
2394 4099 CircleF
2392 4095 CircleF
2390 4090 CircleF
2389 4085 CircleF
2387 4080 CircleF
2385 4075 CircleF
% End plot #2
1.000 UL
LTb
LCb setrgbcolor
2850 3965 M
482 0 V
1.000 UP
stroke
LTb
LCb setrgbcolor
1.000 UL
LTb
1.00 1.00 1.00 C 1.000 3759 2508 1060 1060 BoxColFill
LCb setrgbcolor
3759 2508 M
0 1060 V
1060 0 V
0 -1060 V
-1060 0 V
stroke
LTb
LCb setrgbcolor
0.300 UL
LT0
LCa setrgbcolor
4290 2957 M
stroke
1.000 UL
LTb
LCb setrgbcolor
4290 2957 M
-63 0 V
63 0 R
63 0 V
stroke
LTb
LCb setrgbcolor
0.300 UL
LT0
LCa setrgbcolor
4290 3365 M
-49 -2 V
-47 -6 V
-47 -10 V
-45 -14 V
-44 -18 V
-41 -21 V
-38 -25 V
-35 -28 V
-32 -30 V
-28 -34 V
-24 -35 V
-20 -37 V
-15 -39 V
-11 -40 V
-6 -40 V
-1 -41 V
4 -41 V
9 -40 V
13 -39 V
18 -38 V
22 -36 V
27 -34 V
30 -32 V
34 -29 V
37 -26 V
40 -23 V
42 -19 V
45 -16 V
46 -11 V
47 -8 V
48 -4 V
49 1 V
48 4 V
47 8 V
46 13 V
44 16 V
42 20 V
40 23 V
36 27 V
33 29 V
30 32 V
26 35 V
21 36 V
17 38 V
13 40 V
8 40 V
3 41 V
-2 41 V
-7 40 V
-11 40 V
-16 38 V
-20 37 V
-25 35 V
-29 33 V
-32 30 V
-36 27 V
-39 25 V
-41 20 V
-44 17 V
-46 14 V
-47 9 V
-47 6 V
-49 1 V
stroke
1.000 UL
LTb
LCb setrgbcolor
4290 3365 M
-63 0 V
63 0 R
63 0 V
stroke
LTb
LCb setrgbcolor
0.300 UL
LT0
LCa setrgbcolor
4290 2957 M
stroke
1.000 UL
LTb
LCb setrgbcolor
4290 2957 M
0 -63 V
0 63 R
0 63 V
stroke
LTb
LCb setrgbcolor
0.300 UL
LT0
LCa setrgbcolor
4531 2957 M
-2 20 V
-3 20 V
-6 20 V
-8 19 V
-11 19 V
-12 17 V
-15 16 V
-16 15 V
-19 14 V
-19 12 V
-21 10 V
-22 8 V
-23 6 V
-24 5 V
-23 2 V
-25 1 V
-24 -2 V
-23 -3 V
-23 -6 V
-23 -8 V
-21 -9 V
-20 -11 V
-19 -13 V
-17 -14 V
-16 -16 V
-13 -17 V
-12 -18 V
-9 -19 V
-7 -19 V
-4 -20 V
-2 -21 V
0 -20 V
2 -20 V
5 -20 V
8 -20 V
9 -18 V
12 -18 V
14 -17 V
15 -15 V
18 -15 V
19 -12 V
20 -11 V
22 -9 V
22 -7 V
24 -6 V
23 -3 V
25 -1 V
24 1 V
23 2 V
24 5 V
23 7 V
21 9 V
21 10 V
20 12 V
17 14 V
17 15 V
14 17 V
12 17 V
10 19 V
8 19 V
6 20 V
3 20 V
1 20 V
stroke
1.000 UL
LTb
LCb setrgbcolor
4531 2957 M
0 -63 V
0 63 R
0 63 V
stroke
LTb
LCb setrgbcolor
0.300 UL
LT0
LCa setrgbcolor
4772 2957 M
-3 41 V
-7 40 V
-12 39 V
-16 39 V
-21 37 V
-25 34 V
-30 33 V
-32 30 V
-37 27 V
-39 23 V
-42 21 V
-44 16 V
-45 13 V
-48 9 V
-47 5 V
-49 1 V
-48 -3 V
-47 -8 V
-46 -11 V
-45 -15 V
-43 -19 V
-40 -22 V
-38 -26 V
-34 -28 V
-31 -32 V
-27 -34 V
-23 -36 V
-18 -37 V
-14 -39 V
-9 -41 V
-4 -40 V
0 -41 V
5 -40 V
10 -40 V
15 -39 V
19 -38 V
23 -35 V
28 -34 V
31 -31 V
35 -28 V
38 -25 V
41 -22 V
43 -18 V
45 -14 V
47 -11 V
47 -7 V
49 -2 V
48 1 V
47 6 V
47 10 V
46 13 V
43 17 V
42 21 V
39 25 V
35 27 V
33 30 V
28 33 V
25 35 V
20 37 V
16 39 V
11 40 V
6 40 V
2 41 V
stroke
1.000 UL
LTb
LCb setrgbcolor
4772 2957 M
0 -63 V
0 63 R
0 63 V
stroke
LTb
LCb setrgbcolor
0.300 UL
LT0
LCa setrgbcolor
4290 2957 M
482 0 V
-482 0 R
417 204 V
4290 2957 M
241 353 V
4290 2957 M
0 408 V
0 -408 R
-242 353 V
242 -353 R
-418 204 V
418 -204 R
-483 0 V
483 0 R
3872 2753 L
418 204 R
4048 2603 L
242 354 R
0 -408 V
0 408 R
241 -354 V
-241 354 R
417 -204 V
-417 204 R
482 0 V
-482 0 R
417 204 V
stroke
LTb
4325 3479 M
[ [(Helvetica) 140.0 0.0 true true 0 (K=3)]
] -46.7 MCshow
1.000 UP
1.000 UL
LTb
LCb setrgbcolor
% Begin plot #1
1.000 UP
1.000 UL
LT0
0.00 0.00 1.00 C /Helvetica findfont 200 scalefont setfont
4168 2562 CircleF
% End plot #1
% Begin plot #2
1.000 UP
1.000 UL
LT1
0.00 0.00 1.00 C /Helvetica findfont 200 scalefont setfont
4170 2562 CircleF
4171 2561 CircleF
4173 2561 CircleF
4175 2561 CircleF
4176 2560 CircleF
4178 2560 CircleF
4179 2560 CircleF
4181 2559 CircleF
4183 2559 CircleF
4184 2559 CircleF
4186 2558 CircleF
4187 2558 CircleF
4189 2558 CircleF
4191 2557 CircleF
4192 2557 CircleF
4194 2557 CircleF
4196 2557 CircleF
4197 2556 CircleF
4199 2556 CircleF
4200 2556 CircleF
4202 2556 CircleF
4204 2555 CircleF
4205 2555 CircleF
4207 2555 CircleF
4208 2555 CircleF
4210 2554 CircleF
4212 2554 CircleF
4213 2554 CircleF
4215 2554 CircleF
4216 2554 CircleF
4218 2553 CircleF
4220 2553 CircleF
4221 2553 CircleF
4223 2553 CircleF
4225 2553 CircleF
4226 2552 CircleF
4228 2552 CircleF
4229 2552 CircleF
4231 2552 CircleF
4233 2552 CircleF
4234 2551 CircleF
4236 2551 CircleF
4238 2551 CircleF
4239 2551 CircleF
4241 2551 CircleF
4242 2551 CircleF
4244 2551 CircleF
4246 2550 CircleF
4247 2550 CircleF
4249 2550 CircleF
4251 2550 CircleF
4252 2550 CircleF
4254 2550 CircleF
4255 2550 CircleF
4257 2550 CircleF
4259 2550 CircleF
4260 2550 CircleF
4262 2549 CircleF
4264 2549 CircleF
4265 2549 CircleF
4267 2549 CircleF
4268 2549 CircleF
4270 2549 CircleF
4272 2549 CircleF
4273 2549 CircleF
4275 2549 CircleF
4277 2549 CircleF
4278 2549 CircleF
4280 2549 CircleF
4282 2549 CircleF
4283 2549 CircleF
4285 2549 CircleF
4286 2549 CircleF
4288 2549 CircleF
4290 2549 CircleF
4291 2549 CircleF
4293 2549 CircleF
4295 2549 CircleF
4296 2549 CircleF
4298 2549 CircleF
4300 2549 CircleF
4301 2549 CircleF
4303 2549 CircleF
4304 2549 CircleF
4306 2549 CircleF
4308 2549 CircleF
4309 2549 CircleF
4311 2549 CircleF
4313 2549 CircleF
4314 2549 CircleF
4316 2549 CircleF
4318 2550 CircleF
4319 2550 CircleF
4321 2550 CircleF
4323 2550 CircleF
4324 2550 CircleF
4326 2550 CircleF
4327 2550 CircleF
4329 2550 CircleF
% End plot #2
1.000 UL
LTb
LCb setrgbcolor
4290 2957 M
482 0 V
1.000 UP
stroke
LTb
LCb setrgbcolor
1.000 UL
LTb
1.00 1.00 1.00 C 1.000 5199 1500 1060 1060 BoxColFill
LCb setrgbcolor
5199 1500 M
0 1060 V
1060 0 V
0 -1060 V
-1060 0 V
stroke
LTb
LCb setrgbcolor
0.300 UL
LT0
LCa setrgbcolor
5730 1949 M
stroke
1.000 UL
LTb
LCb setrgbcolor
5730 1949 M
-63 0 V
63 0 R
63 0 V
stroke
LTb
LCb setrgbcolor
0.300 UL
LT0
LCa setrgbcolor
5730 2357 M
-49 -2 V
-47 -6 V
-47 -10 V
-45 -14 V
-44 -18 V
-41 -21 V
-38 -25 V
-35 -28 V
-32 -30 V
-28 -34 V
-24 -35 V
-20 -37 V
-15 -39 V
-11 -40 V
-6 -40 V
-1 -41 V
4 -41 V
9 -40 V
13 -39 V
18 -38 V
22 -36 V
27 -34 V
30 -32 V
34 -29 V
37 -26 V
40 -23 V
42 -19 V
45 -16 V
46 -11 V
47 -8 V
48 -4 V
49 1 V
48 4 V
47 8 V
46 13 V
44 16 V
42 20 V
40 23 V
36 27 V
33 29 V
30 32 V
26 35 V
21 36 V
17 38 V
13 40 V
8 40 V
3 41 V
-2 41 V
-7 40 V
-11 40 V
-16 38 V
-20 37 V
-25 35 V
-29 33 V
-32 30 V
-36 27 V
-39 25 V
-41 20 V
-44 17 V
-46 14 V
-47 9 V
-47 6 V
-49 1 V
stroke
1.000 UL
LTb
LCb setrgbcolor
5730 2357 M
-63 0 V
63 0 R
63 0 V
stroke
LTb
LCb setrgbcolor
0.300 UL
LT0
LCa setrgbcolor
5730 1949 M
stroke
1.000 UL
LTb
LCb setrgbcolor
5730 1949 M
0 -63 V
0 63 R
0 63 V
stroke
LTb
LCb setrgbcolor
0.300 UL
LT0
LCa setrgbcolor
5971 1949 M
-2 20 V
-3 20 V
-6 20 V
-8 19 V
-11 19 V
-12 17 V
-15 16 V
-16 15 V
-19 14 V
-19 12 V
-21 10 V
-22 8 V
-23 6 V
-24 5 V
-23 2 V
-25 1 V
-24 -2 V
-23 -3 V
-23 -6 V
-23 -8 V
-21 -9 V
-20 -11 V
-19 -13 V
-17 -14 V
-16 -16 V
-13 -17 V
-12 -18 V
-9 -19 V
-7 -19 V
-4 -20 V
-2 -21 V
0 -20 V
2 -20 V
5 -20 V
8 -20 V
9 -18 V
12 -18 V
14 -17 V
15 -15 V
18 -15 V
19 -12 V
20 -11 V
22 -9 V
22 -7 V
24 -6 V
23 -3 V
25 -1 V
24 1 V
23 2 V
24 5 V
23 7 V
21 9 V
21 10 V
20 12 V
17 14 V
17 15 V
14 17 V
12 17 V
10 19 V
8 19 V
6 20 V
3 20 V
1 20 V
stroke
1.000 UL
LTb
LCb setrgbcolor
5971 1949 M
0 -63 V
0 63 R
0 63 V
stroke
LTb
LCb setrgbcolor
0.300 UL
LT0
LCa setrgbcolor
6212 1949 M
-3 41 V
-7 40 V
-12 39 V
-16 39 V
-21 37 V
-25 34 V
-30 33 V
-32 30 V
-37 27 V
-39 23 V
-42 21 V
-44 16 V
-45 13 V
-48 9 V
-47 5 V
-49 1 V
-48 -3 V
-47 -8 V
-46 -11 V
-45 -15 V
-43 -19 V
-40 -22 V
-38 -26 V
-34 -28 V
-31 -32 V
-27 -34 V
-23 -36 V
-18 -37 V
-14 -39 V
-9 -41 V
-4 -40 V
0 -41 V
5 -40 V
10 -40 V
15 -39 V
19 -38 V
23 -35 V
28 -34 V
31 -31 V
35 -28 V
38 -25 V
41 -22 V
43 -18 V
45 -14 V
47 -11 V
47 -7 V
49 -2 V
48 1 V
47 6 V
47 10 V
46 13 V
43 17 V
42 21 V
39 25 V
35 27 V
33 30 V
28 33 V
25 35 V
20 37 V
16 39 V
11 40 V
6 40 V
2 41 V
stroke
1.000 UL
LTb
LCb setrgbcolor
6212 1949 M
0 -63 V
0 63 R
0 63 V
stroke
LTb
LCb setrgbcolor
0.300 UL
LT0
LCa setrgbcolor
5730 1949 M
482 0 V
-482 0 R
417 204 V
5730 1949 M
241 353 V
5730 1949 M
0 408 V
0 -408 R
-242 353 V
242 -353 R
-418 204 V
418 -204 R
-483 0 V
483 0 R
5312 1745 L
418 204 R
5488 1595 L
242 354 R
0 -408 V
0 408 R
241 -354 V
-241 354 R
417 -204 V
-417 204 R
482 0 V
-482 0 R
417 204 V
stroke
LTb
5765 2471 M
[ [(Helvetica) 140.0 0.0 true true 0 (K=8)]
] -46.7 MCshow
1.000 UP
1.000 UL
LTb
LCb setrgbcolor
% Begin plot #1
1.000 UP
1.000 UL
LT0
0.00 0.00 1.00 C /Helvetica findfont 200 scalefont setfont
6206 1885 CircleF
% End plot #1
% Begin plot #2
1.000 UP
1.000 UL
LT1
0.00 0.00 1.00 C /Helvetica findfont 200 scalefont setfont
6206 1886 CircleF
6206 1886 CircleF
6206 1887 CircleF
6206 1887 CircleF
6206 1888 CircleF
6206 1888 CircleF
6207 1889 CircleF
6207 1889 CircleF
6207 1890 CircleF
6207 1890 CircleF
6207 1891 CircleF
6207 1891 CircleF
6207 1892 CircleF
6207 1892 CircleF
6207 1893 CircleF
6207 1893 CircleF
6207 1894 CircleF
6207 1894 CircleF
6208 1895 CircleF
6208 1895 CircleF
6208 1896 CircleF
6208 1897 CircleF
6208 1897 CircleF
6208 1898 CircleF
6208 1898 CircleF
6208 1899 CircleF
6208 1899 CircleF
6208 1900 CircleF
6208 1900 CircleF
6208 1901 CircleF
6208 1901 CircleF
6209 1902 CircleF
6209 1902 CircleF
6209 1903 CircleF
6209 1903 CircleF
6209 1904 CircleF
6209 1904 CircleF
6209 1905 CircleF
6209 1905 CircleF
6209 1906 CircleF
6209 1906 CircleF
6209 1907 CircleF
6209 1907 CircleF
6209 1908 CircleF
6209 1908 CircleF
6209 1909 CircleF
6210 1909 CircleF
6210 1910 CircleF
6210 1910 CircleF
6210 1911 CircleF
6210 1911 CircleF
6210 1912 CircleF
6210 1912 CircleF
6210 1913 CircleF
6210 1913 CircleF
6210 1914 CircleF
6210 1914 CircleF
6210 1915 CircleF
6210 1915 CircleF
6210 1916 CircleF
6210 1917 CircleF
6210 1917 CircleF
6210 1918 CircleF
6210 1918 CircleF
6210 1919 CircleF
6210 1919 CircleF
6211 1920 CircleF
6211 1920 CircleF
6211 1921 CircleF
6211 1921 CircleF
6211 1922 CircleF
6211 1922 CircleF
6211 1923 CircleF
6211 1923 CircleF
6211 1924 CircleF
6211 1924 CircleF
6211 1925 CircleF
6211 1925 CircleF
6211 1926 CircleF
6211 1926 CircleF
6211 1927 CircleF
6211 1927 CircleF
6211 1928 CircleF
6211 1928 CircleF
6211 1929 CircleF
6211 1929 CircleF
6211 1930 CircleF
6211 1930 CircleF
6211 1931 CircleF
6211 1931 CircleF
6211 1932 CircleF
6211 1932 CircleF
6211 1933 CircleF
6211 1934 CircleF
6211 1934 CircleF
6211 1935 CircleF
6211 1935 CircleF
6212 1936 CircleF
6212 1936 CircleF
% End plot #2
1.000 UL
LTb
LCb setrgbcolor
5730 1949 M
482 0 V
1.000 UP
stroke
LTb
LCb setrgbcolor
stroke
grestore
end
showpage
%%Trailer
%%DocumentFonts: Symbol Helvetica
