%!PS-Adobe-2.0 EPSF-2.0
%%Title: belykh_rst_K_delta.eps
%%Creator: gnuplot 4.6 patchlevel 4
%%CreationDate: Thu Nov 20 22:44:59 2014
%%DocumentFonts: (atend)
%%BoundingBox: 50 50 410 302
%%EndComments
%%BeginProlog
/gnudict 256 dict def
gnudict begin
%
% The following true/false flags may be edited by hand if desired.
% The unit line width and grayscale image gamma correction may also be changed.
%
/Color true def
/Blacktext false def
/Solid false def
/Dashlength 1 def
/Landscape false def
/Level1 false def
/Rounded false def
/ClipToBoundingBox false def
/SuppressPDFMark false def
/TransparentPatterns false def
/gnulinewidth 5.000 def
/userlinewidth gnulinewidth def
/Gamma 1.0 def
/BackgroundColor {-1.000 -1.000 -1.000} def
%
/vshift -66 def
/dl1 {
  10.0 Dashlength mul mul
  Rounded { currentlinewidth 0.75 mul sub dup 0 le { pop 0.01 } if } if
} def
/dl2 {
  10.0 Dashlength mul mul
  Rounded { currentlinewidth 0.75 mul add } if
} def
/hpt_ 31.5 def
/vpt_ 31.5 def
/hpt hpt_ def
/vpt vpt_ def
/doclip {
  ClipToBoundingBox {
    newpath 50 50 moveto 410 50 lineto 410 302 lineto 50 302 lineto closepath
    clip
  } if
} def
%
% Gnuplot Prolog Version 4.6 (September 2012)
%
%/SuppressPDFMark true def
%
/M {moveto} bind def
/L {lineto} bind def
/R {rmoveto} bind def
/V {rlineto} bind def
/N {newpath moveto} bind def
/Z {closepath} bind def
/C {setrgbcolor} bind def
/f {rlineto fill} bind def
/g {setgray} bind def
/Gshow {show} def   % May be redefined later in the file to support UTF-8
/vpt2 vpt 2 mul def
/hpt2 hpt 2 mul def
/Lshow {currentpoint stroke M 0 vshift R 
	Blacktext {gsave 0 setgray show grestore} {show} ifelse} def
/Rshow {currentpoint stroke M dup stringwidth pop neg vshift R
	Blacktext {gsave 0 setgray show grestore} {show} ifelse} def
/Cshow {currentpoint stroke M dup stringwidth pop -2 div vshift R 
	Blacktext {gsave 0 setgray show grestore} {show} ifelse} def
/UP {dup vpt_ mul /vpt exch def hpt_ mul /hpt exch def
  /hpt2 hpt 2 mul def /vpt2 vpt 2 mul def} def
/DL {Color {setrgbcolor Solid {pop []} if 0 setdash}
 {pop pop pop 0 setgray Solid {pop []} if 0 setdash} ifelse} def
/BL {stroke userlinewidth 2 mul setlinewidth
	Rounded {1 setlinejoin 1 setlinecap} if} def
/AL {stroke userlinewidth 2 div setlinewidth
	Rounded {1 setlinejoin 1 setlinecap} if} def
/UL {dup gnulinewidth mul /userlinewidth exch def
	dup 1 lt {pop 1} if 10 mul /udl exch def} def
/PL {stroke userlinewidth setlinewidth
	Rounded {1 setlinejoin 1 setlinecap} if} def
3.8 setmiterlimit
% Default Line colors
/LCw {1 1 1} def
/LCb {0 0 0} def
/LCa {0 0 0} def
/LC0 {1 0 0} def
/LC1 {0 1 0} def
/LC2 {0 0 1} def
/LC3 {1 0 1} def
/LC4 {0 1 1} def
/LC5 {1 1 0} def
/LC6 {0 0 0} def
/LC7 {1 0.3 0} def
/LC8 {0.5 0.5 0.5} def
% Default Line Types
/LTw {PL [] 1 setgray} def
/LTb {BL [] LCb DL} def
/LTa {AL [1 udl mul 2 udl mul] 0 setdash LCa setrgbcolor} def
/LT0 {PL [] LC0 DL} def
/LT1 {PL [4 dl1 2 dl2] LC1 DL} def
/LT2 {PL [2 dl1 3 dl2] LC2 DL} def
/LT3 {PL [1 dl1 1.5 dl2] LC3 DL} def
/LT4 {PL [6 dl1 2 dl2 1 dl1 2 dl2] LC4 DL} def
/LT5 {PL [3 dl1 3 dl2 1 dl1 3 dl2] LC5 DL} def
/LT6 {PL [2 dl1 2 dl2 2 dl1 6 dl2] LC6 DL} def
/LT7 {PL [1 dl1 2 dl2 6 dl1 2 dl2 1 dl1 2 dl2] LC7 DL} def
/LT8 {PL [2 dl1 2 dl2 2 dl1 2 dl2 2 dl1 2 dl2 2 dl1 4 dl2] LC8 DL} def
/Pnt {stroke [] 0 setdash gsave 1 setlinecap M 0 0 V stroke grestore} def
/Dia {stroke [] 0 setdash 2 copy vpt add M
  hpt neg vpt neg V hpt vpt neg V
  hpt vpt V hpt neg vpt V closepath stroke
  Pnt} def
/Pls {stroke [] 0 setdash vpt sub M 0 vpt2 V
  currentpoint stroke M
  hpt neg vpt neg R hpt2 0 V stroke
 } def
/Box {stroke [] 0 setdash 2 copy exch hpt sub exch vpt add M
  0 vpt2 neg V hpt2 0 V 0 vpt2 V
  hpt2 neg 0 V closepath stroke
  Pnt} def
/Crs {stroke [] 0 setdash exch hpt sub exch vpt add M
  hpt2 vpt2 neg V currentpoint stroke M
  hpt2 neg 0 R hpt2 vpt2 V stroke} def
/TriU {stroke [] 0 setdash 2 copy vpt 1.12 mul add M
  hpt neg vpt -1.62 mul V
  hpt 2 mul 0 V
  hpt neg vpt 1.62 mul V closepath stroke
  Pnt} def
/Star {2 copy Pls Crs} def
/BoxF {stroke [] 0 setdash exch hpt sub exch vpt add M
  0 vpt2 neg V hpt2 0 V 0 vpt2 V
  hpt2 neg 0 V closepath fill} def
/TriUF {stroke [] 0 setdash vpt 1.12 mul add M
  hpt neg vpt -1.62 mul V
  hpt 2 mul 0 V
  hpt neg vpt 1.62 mul V closepath fill} def
/TriD {stroke [] 0 setdash 2 copy vpt 1.12 mul sub M
  hpt neg vpt 1.62 mul V
  hpt 2 mul 0 V
  hpt neg vpt -1.62 mul V closepath stroke
  Pnt} def
/TriDF {stroke [] 0 setdash vpt 1.12 mul sub M
  hpt neg vpt 1.62 mul V
  hpt 2 mul 0 V
  hpt neg vpt -1.62 mul V closepath fill} def
/DiaF {stroke [] 0 setdash vpt add M
  hpt neg vpt neg V hpt vpt neg V
  hpt vpt V hpt neg vpt V closepath fill} def
/Pent {stroke [] 0 setdash 2 copy gsave
  translate 0 hpt M 4 {72 rotate 0 hpt L} repeat
  closepath stroke grestore Pnt} def
/PentF {stroke [] 0 setdash gsave
  translate 0 hpt M 4 {72 rotate 0 hpt L} repeat
  closepath fill grestore} def
/Circle {stroke [] 0 setdash 2 copy
  hpt 0 360 arc stroke Pnt} def
/CircleF {stroke [] 0 setdash hpt 0 360 arc fill} def
/C0 {BL [] 0 setdash 2 copy moveto vpt 90 450 arc} bind def
/C1 {BL [] 0 setdash 2 copy moveto
	2 copy vpt 0 90 arc closepath fill
	vpt 0 360 arc closepath} bind def
/C2 {BL [] 0 setdash 2 copy moveto
	2 copy vpt 90 180 arc closepath fill
	vpt 0 360 arc closepath} bind def
/C3 {BL [] 0 setdash 2 copy moveto
	2 copy vpt 0 180 arc closepath fill
	vpt 0 360 arc closepath} bind def
/C4 {BL [] 0 setdash 2 copy moveto
	2 copy vpt 180 270 arc closepath fill
	vpt 0 360 arc closepath} bind def
/C5 {BL [] 0 setdash 2 copy moveto
	2 copy vpt 0 90 arc
	2 copy moveto
	2 copy vpt 180 270 arc closepath fill
	vpt 0 360 arc} bind def
/C6 {BL [] 0 setdash 2 copy moveto
	2 copy vpt 90 270 arc closepath fill
	vpt 0 360 arc closepath} bind def
/C7 {BL [] 0 setdash 2 copy moveto
	2 copy vpt 0 270 arc closepath fill
	vpt 0 360 arc closepath} bind def
/C8 {BL [] 0 setdash 2 copy moveto
	2 copy vpt 270 360 arc closepath fill
	vpt 0 360 arc closepath} bind def
/C9 {BL [] 0 setdash 2 copy moveto
	2 copy vpt 270 450 arc closepath fill
	vpt 0 360 arc closepath} bind def
/C10 {BL [] 0 setdash 2 copy 2 copy moveto vpt 270 360 arc closepath fill
	2 copy moveto
	2 copy vpt 90 180 arc closepath fill
	vpt 0 360 arc closepath} bind def
/C11 {BL [] 0 setdash 2 copy moveto
	2 copy vpt 0 180 arc closepath fill
	2 copy moveto
	2 copy vpt 270 360 arc closepath fill
	vpt 0 360 arc closepath} bind def
/C12 {BL [] 0 setdash 2 copy moveto
	2 copy vpt 180 360 arc closepath fill
	vpt 0 360 arc closepath} bind def
/C13 {BL [] 0 setdash 2 copy moveto
	2 copy vpt 0 90 arc closepath fill
	2 copy moveto
	2 copy vpt 180 360 arc closepath fill
	vpt 0 360 arc closepath} bind def
/C14 {BL [] 0 setdash 2 copy moveto
	2 copy vpt 90 360 arc closepath fill
	vpt 0 360 arc} bind def
/C15 {BL [] 0 setdash 2 copy vpt 0 360 arc closepath fill
	vpt 0 360 arc closepath} bind def
/Rec {newpath 4 2 roll moveto 1 index 0 rlineto 0 exch rlineto
	neg 0 rlineto closepath} bind def
/Square {dup Rec} bind def
/Bsquare {vpt sub exch vpt sub exch vpt2 Square} bind def
/S0 {BL [] 0 setdash 2 copy moveto 0 vpt rlineto BL Bsquare} bind def
/S1 {BL [] 0 setdash 2 copy vpt Square fill Bsquare} bind def
/S2 {BL [] 0 setdash 2 copy exch vpt sub exch vpt Square fill Bsquare} bind def
/S3 {BL [] 0 setdash 2 copy exch vpt sub exch vpt2 vpt Rec fill Bsquare} bind def
/S4 {BL [] 0 setdash 2 copy exch vpt sub exch vpt sub vpt Square fill Bsquare} bind def
/S5 {BL [] 0 setdash 2 copy 2 copy vpt Square fill
	exch vpt sub exch vpt sub vpt Square fill Bsquare} bind def
/S6 {BL [] 0 setdash 2 copy exch vpt sub exch vpt sub vpt vpt2 Rec fill Bsquare} bind def
/S7 {BL [] 0 setdash 2 copy exch vpt sub exch vpt sub vpt vpt2 Rec fill
	2 copy vpt Square fill Bsquare} bind def
/S8 {BL [] 0 setdash 2 copy vpt sub vpt Square fill Bsquare} bind def
/S9 {BL [] 0 setdash 2 copy vpt sub vpt vpt2 Rec fill Bsquare} bind def
/S10 {BL [] 0 setdash 2 copy vpt sub vpt Square fill 2 copy exch vpt sub exch vpt Square fill
	Bsquare} bind def
/S11 {BL [] 0 setdash 2 copy vpt sub vpt Square fill 2 copy exch vpt sub exch vpt2 vpt Rec fill
	Bsquare} bind def
/S12 {BL [] 0 setdash 2 copy exch vpt sub exch vpt sub vpt2 vpt Rec fill Bsquare} bind def
/S13 {BL [] 0 setdash 2 copy exch vpt sub exch vpt sub vpt2 vpt Rec fill
	2 copy vpt Square fill Bsquare} bind def
/S14 {BL [] 0 setdash 2 copy exch vpt sub exch vpt sub vpt2 vpt Rec fill
	2 copy exch vpt sub exch vpt Square fill Bsquare} bind def
/S15 {BL [] 0 setdash 2 copy Bsquare fill Bsquare} bind def
/D0 {gsave translate 45 rotate 0 0 S0 stroke grestore} bind def
/D1 {gsave translate 45 rotate 0 0 S1 stroke grestore} bind def
/D2 {gsave translate 45 rotate 0 0 S2 stroke grestore} bind def
/D3 {gsave translate 45 rotate 0 0 S3 stroke grestore} bind def
/D4 {gsave translate 45 rotate 0 0 S4 stroke grestore} bind def
/D5 {gsave translate 45 rotate 0 0 S5 stroke grestore} bind def
/D6 {gsave translate 45 rotate 0 0 S6 stroke grestore} bind def
/D7 {gsave translate 45 rotate 0 0 S7 stroke grestore} bind def
/D8 {gsave translate 45 rotate 0 0 S8 stroke grestore} bind def
/D9 {gsave translate 45 rotate 0 0 S9 stroke grestore} bind def
/D10 {gsave translate 45 rotate 0 0 S10 stroke grestore} bind def
/D11 {gsave translate 45 rotate 0 0 S11 stroke grestore} bind def
/D12 {gsave translate 45 rotate 0 0 S12 stroke grestore} bind def
/D13 {gsave translate 45 rotate 0 0 S13 stroke grestore} bind def
/D14 {gsave translate 45 rotate 0 0 S14 stroke grestore} bind def
/D15 {gsave translate 45 rotate 0 0 S15 stroke grestore} bind def
/DiaE {stroke [] 0 setdash vpt add M
  hpt neg vpt neg V hpt vpt neg V
  hpt vpt V hpt neg vpt V closepath stroke} def
/BoxE {stroke [] 0 setdash exch hpt sub exch vpt add M
  0 vpt2 neg V hpt2 0 V 0 vpt2 V
  hpt2 neg 0 V closepath stroke} def
/TriUE {stroke [] 0 setdash vpt 1.12 mul add M
  hpt neg vpt -1.62 mul V
  hpt 2 mul 0 V
  hpt neg vpt 1.62 mul V closepath stroke} def
/TriDE {stroke [] 0 setdash vpt 1.12 mul sub M
  hpt neg vpt 1.62 mul V
  hpt 2 mul 0 V
  hpt neg vpt -1.62 mul V closepath stroke} def
/PentE {stroke [] 0 setdash gsave
  translate 0 hpt M 4 {72 rotate 0 hpt L} repeat
  closepath stroke grestore} def
/CircE {stroke [] 0 setdash 
  hpt 0 360 arc stroke} def
/Opaque {gsave closepath 1 setgray fill grestore 0 setgray closepath} def
/DiaW {stroke [] 0 setdash vpt add M
  hpt neg vpt neg V hpt vpt neg V
  hpt vpt V hpt neg vpt V Opaque stroke} def
/BoxW {stroke [] 0 setdash exch hpt sub exch vpt add M
  0 vpt2 neg V hpt2 0 V 0 vpt2 V
  hpt2 neg 0 V Opaque stroke} def
/TriUW {stroke [] 0 setdash vpt 1.12 mul add M
  hpt neg vpt -1.62 mul V
  hpt 2 mul 0 V
  hpt neg vpt 1.62 mul V Opaque stroke} def
/TriDW {stroke [] 0 setdash vpt 1.12 mul sub M
  hpt neg vpt 1.62 mul V
  hpt 2 mul 0 V
  hpt neg vpt -1.62 mul V Opaque stroke} def
/PentW {stroke [] 0 setdash gsave
  translate 0 hpt M 4 {72 rotate 0 hpt L} repeat
  Opaque stroke grestore} def
/CircW {stroke [] 0 setdash 
  hpt 0 360 arc Opaque stroke} def
/BoxFill {gsave Rec 1 setgray fill grestore} def
/Density {
  /Fillden exch def
  currentrgbcolor
  /ColB exch def /ColG exch def /ColR exch def
  /ColR ColR Fillden mul Fillden sub 1 add def
  /ColG ColG Fillden mul Fillden sub 1 add def
  /ColB ColB Fillden mul Fillden sub 1 add def
  ColR ColG ColB setrgbcolor} def
/BoxColFill {gsave Rec PolyFill} def
/PolyFill {gsave Density fill grestore grestore} def
/h {rlineto rlineto rlineto gsave closepath fill grestore} bind def
%
% PostScript Level 1 Pattern Fill routine for rectangles
% Usage: x y w h s a XX PatternFill
%	x,y = lower left corner of box to be filled
%	w,h = width and height of box
%	  a = angle in degrees between lines and x-axis
%	 XX = 0/1 for no/yes cross-hatch
%
/PatternFill {gsave /PFa [ 9 2 roll ] def
  PFa 0 get PFa 2 get 2 div add PFa 1 get PFa 3 get 2 div add translate
  PFa 2 get -2 div PFa 3 get -2 div PFa 2 get PFa 3 get Rec
  TransparentPatterns {} {gsave 1 setgray fill grestore} ifelse
  clip
  currentlinewidth 0.5 mul setlinewidth
  /PFs PFa 2 get dup mul PFa 3 get dup mul add sqrt def
  0 0 M PFa 5 get rotate PFs -2 div dup translate
  0 1 PFs PFa 4 get div 1 add floor cvi
	{PFa 4 get mul 0 M 0 PFs V} for
  0 PFa 6 get ne {
	0 1 PFs PFa 4 get div 1 add floor cvi
	{PFa 4 get mul 0 2 1 roll M PFs 0 V} for
 } if
  stroke grestore} def
%
/languagelevel where
 {pop languagelevel} {1} ifelse
 2 lt
	{/InterpretLevel1 true def}
	{/InterpretLevel1 Level1 def}
 ifelse
%
% PostScript level 2 pattern fill definitions
%
/Level2PatternFill {
/Tile8x8 {/PaintType 2 /PatternType 1 /TilingType 1 /BBox [0 0 8 8] /XStep 8 /YStep 8}
	bind def
/KeepColor {currentrgbcolor [/Pattern /DeviceRGB] setcolorspace} bind def
<< Tile8x8
 /PaintProc {0.5 setlinewidth pop 0 0 M 8 8 L 0 8 M 8 0 L stroke} 
>> matrix makepattern
/Pat1 exch def
<< Tile8x8
 /PaintProc {0.5 setlinewidth pop 0 0 M 8 8 L 0 8 M 8 0 L stroke
	0 4 M 4 8 L 8 4 L 4 0 L 0 4 L stroke}
>> matrix makepattern
/Pat2 exch def
<< Tile8x8
 /PaintProc {0.5 setlinewidth pop 0 0 M 0 8 L
	8 8 L 8 0 L 0 0 L fill}
>> matrix makepattern
/Pat3 exch def
<< Tile8x8
 /PaintProc {0.5 setlinewidth pop -4 8 M 8 -4 L
	0 12 M 12 0 L stroke}
>> matrix makepattern
/Pat4 exch def
<< Tile8x8
 /PaintProc {0.5 setlinewidth pop -4 0 M 8 12 L
	0 -4 M 12 8 L stroke}
>> matrix makepattern
/Pat5 exch def
<< Tile8x8
 /PaintProc {0.5 setlinewidth pop -2 8 M 4 -4 L
	0 12 M 8 -4 L 4 12 M 10 0 L stroke}
>> matrix makepattern
/Pat6 exch def
<< Tile8x8
 /PaintProc {0.5 setlinewidth pop -2 0 M 4 12 L
	0 -4 M 8 12 L 4 -4 M 10 8 L stroke}
>> matrix makepattern
/Pat7 exch def
<< Tile8x8
 /PaintProc {0.5 setlinewidth pop 8 -2 M -4 4 L
	12 0 M -4 8 L 12 4 M 0 10 L stroke}
>> matrix makepattern
/Pat8 exch def
<< Tile8x8
 /PaintProc {0.5 setlinewidth pop 0 -2 M 12 4 L
	-4 0 M 12 8 L -4 4 M 8 10 L stroke}
>> matrix makepattern
/Pat9 exch def
/Pattern1 {PatternBgnd KeepColor Pat1 setpattern} bind def
/Pattern2 {PatternBgnd KeepColor Pat2 setpattern} bind def
/Pattern3 {PatternBgnd KeepColor Pat3 setpattern} bind def
/Pattern4 {PatternBgnd KeepColor Landscape {Pat5} {Pat4} ifelse setpattern} bind def
/Pattern5 {PatternBgnd KeepColor Landscape {Pat4} {Pat5} ifelse setpattern} bind def
/Pattern6 {PatternBgnd KeepColor Landscape {Pat9} {Pat6} ifelse setpattern} bind def
/Pattern7 {PatternBgnd KeepColor Landscape {Pat8} {Pat7} ifelse setpattern} bind def
} def
%
%
%End of PostScript Level 2 code
%
/PatternBgnd {
  TransparentPatterns {} {gsave 1 setgray fill grestore} ifelse
} def
%
% Substitute for Level 2 pattern fill codes with
% grayscale if Level 2 support is not selected.
%
/Level1PatternFill {
/Pattern1 {0.250 Density} bind def
/Pattern2 {0.500 Density} bind def
/Pattern3 {0.750 Density} bind def
/Pattern4 {0.125 Density} bind def
/Pattern5 {0.375 Density} bind def
/Pattern6 {0.625 Density} bind def
/Pattern7 {0.875 Density} bind def
} def
%
% Now test for support of Level 2 code
%
Level1 {Level1PatternFill} {Level2PatternFill} ifelse
%
/Symbol-Oblique /Symbol findfont [1 0 .167 1 0 0] makefont
dup length dict begin {1 index /FID eq {pop pop} {def} ifelse} forall
currentdict end definefont pop
/MFshow {
   { dup 5 get 3 ge
     { 5 get 3 eq {gsave} {grestore} ifelse }
     {dup dup 0 get findfont exch 1 get scalefont setfont
     [ currentpoint ] exch dup 2 get 0 exch R dup 5 get 2 ne {dup dup 6
     get exch 4 get {Gshow} {stringwidth pop 0 R} ifelse }if dup 5 get 0 eq
     {dup 3 get {2 get neg 0 exch R pop} {pop aload pop M} ifelse} {dup 5
     get 1 eq {dup 2 get exch dup 3 get exch 6 get stringwidth pop -2 div
     dup 0 R} {dup 6 get stringwidth pop -2 div 0 R 6 get
     show 2 index {aload pop M neg 3 -1 roll neg R pop pop} {pop pop pop
     pop aload pop M} ifelse }ifelse }ifelse }
     ifelse }
   forall} def
/Gswidth {dup type /stringtype eq {stringwidth} {pop (n) stringwidth} ifelse} def
/MFwidth {0 exch { dup 5 get 3 ge { 5 get 3 eq { 0 } { pop } ifelse }
 {dup 3 get{dup dup 0 get findfont exch 1 get scalefont setfont
     6 get Gswidth pop add} {pop} ifelse} ifelse} forall} def
/MLshow { currentpoint stroke M
  0 exch R
  Blacktext {gsave 0 setgray MFshow grestore} {MFshow} ifelse } bind def
/MRshow { currentpoint stroke M
  exch dup MFwidth neg 3 -1 roll R
  Blacktext {gsave 0 setgray MFshow grestore} {MFshow} ifelse } bind def
/MCshow { currentpoint stroke M
  exch dup MFwidth -2 div 3 -1 roll R
  Blacktext {gsave 0 setgray MFshow grestore} {MFshow} ifelse } bind def
/XYsave    { [( ) 1 2 true false 3 ()] } bind def
/XYrestore { [( ) 1 2 true false 4 ()] } bind def
Level1 SuppressPDFMark or 
{} {
/SDict 10 dict def
systemdict /pdfmark known not {
  userdict /pdfmark systemdict /cleartomark get put
} if
SDict begin [
  /Title (belykh_rst_K_delta.eps)
  /Subject (gnuplot plot)
  /Creator (gnuplot 4.6 patchlevel 4)
  /Author (valentin)
%  /Producer (gnuplot)
%  /Keywords ()
  /CreationDate (Thu Nov 20 22:44:59 2014)
  /DOCINFO pdfmark
end
} ifelse
end
%%EndProlog
%%Page: 1 1
gnudict begin
gsave
doclip
50 50 translate
0.050 0.050 scale
0 setgray
newpath
(Helvetica) findfont 200 scalefont setfont
BackgroundColor 0 lt 3 1 roll 0 lt exch 0 lt or or not {BackgroundColor C 1.000 0 0 7200.00 5040.00 BoxColFill} if
1.000 UL
LTb
LCb setrgbcolor
1.000 UL
LTa
LCa setrgbcolor
740 640 M
6099 0 V
stroke
LTb
LCb setrgbcolor
740 640 M
63 0 V
6036 0 R
-63 0 V
stroke
620 640 M
[ [(Helvetica) 200.0 0.0 true true 0 ( 0)]
] -66.7 MRshow
1.000 UL
LTb
LCb setrgbcolor
1.000 UL
LTa
LCa setrgbcolor
740 991 M
6099 0 V
stroke
LTb
LCb setrgbcolor
740 991 M
63 0 V
6036 0 R
-63 0 V
stroke
620 991 M
[ [(Helvetica) 200.0 0.0 true true 0 ( 1)]
] -66.7 MRshow
1.000 UL
LTb
LCb setrgbcolor
1.000 UL
LTa
LCa setrgbcolor
740 1342 M
6099 0 V
stroke
LTb
LCb setrgbcolor
740 1342 M
63 0 V
6036 0 R
-63 0 V
stroke
620 1342 M
[ [(Helvetica) 200.0 0.0 true true 0 ( 2)]
] -66.7 MRshow
1.000 UL
LTb
LCb setrgbcolor
1.000 UL
LTa
LCa setrgbcolor
740 1693 M
6099 0 V
stroke
LTb
LCb setrgbcolor
740 1693 M
63 0 V
6036 0 R
-63 0 V
stroke
620 1693 M
[ [(Helvetica) 200.0 0.0 true true 0 ( 3)]
] -66.7 MRshow
1.000 UL
LTb
LCb setrgbcolor
1.000 UL
LTa
LCa setrgbcolor
740 2044 M
6099 0 V
stroke
LTb
LCb setrgbcolor
740 2044 M
63 0 V
6036 0 R
-63 0 V
stroke
620 2044 M
[ [(Helvetica) 200.0 0.0 true true 0 ( 4)]
] -66.7 MRshow
1.000 UL
LTb
LCb setrgbcolor
1.000 UL
LTa
LCa setrgbcolor
740 2395 M
6099 0 V
stroke
LTb
LCb setrgbcolor
740 2395 M
63 0 V
6036 0 R
-63 0 V
stroke
620 2395 M
[ [(Helvetica) 200.0 0.0 true true 0 ( 5)]
] -66.7 MRshow
1.000 UL
LTb
LCb setrgbcolor
1.000 UL
LTa
LCa setrgbcolor
740 2746 M
6099 0 V
stroke
LTb
LCb setrgbcolor
740 2746 M
63 0 V
6036 0 R
-63 0 V
stroke
620 2746 M
[ [(Helvetica) 200.0 0.0 true true 0 ( 6)]
] -66.7 MRshow
1.000 UL
LTb
LCb setrgbcolor
1.000 UL
LTa
LCa setrgbcolor
740 3097 M
6099 0 V
stroke
LTb
LCb setrgbcolor
740 3097 M
63 0 V
6036 0 R
-63 0 V
stroke
620 3097 M
[ [(Helvetica) 200.0 0.0 true true 0 ( 7)]
] -66.7 MRshow
1.000 UL
LTb
LCb setrgbcolor
1.000 UL
LTa
LCa setrgbcolor
740 3448 M
6099 0 V
stroke
LTb
LCb setrgbcolor
740 3448 M
63 0 V
6036 0 R
-63 0 V
stroke
620 3448 M
[ [(Helvetica) 200.0 0.0 true true 0 ( 8)]
] -66.7 MRshow
1.000 UL
LTb
LCb setrgbcolor
1.000 UL
LTa
LCa setrgbcolor
740 3799 M
6099 0 V
stroke
LTb
LCb setrgbcolor
740 3799 M
63 0 V
6036 0 R
-63 0 V
stroke
620 3799 M
[ [(Helvetica) 200.0 0.0 true true 0 ( 9)]
] -66.7 MRshow
1.000 UL
LTb
LCb setrgbcolor
1.000 UL
LTa
LCa setrgbcolor
740 640 M
0 3159 V
stroke
LTb
LCb setrgbcolor
740 640 M
0 63 V
0 3096 R
0 -63 V
stroke
740 440 M
[ [(Helvetica) 200.0 0.0 true true 0 ( 0)]
] -66.7 MCshow
1.000 UL
LTb
LCb setrgbcolor
1.000 UL
LTa
LCa setrgbcolor
2265 640 M
0 3159 V
stroke
LTb
LCb setrgbcolor
2265 640 M
0 63 V
0 3096 R
0 -63 V
stroke
2265 440 M
[ [(Helvetica) 200.0 0.0 true true 0 ( 0.5)]
] -66.7 MCshow
1.000 UL
LTb
LCb setrgbcolor
1.000 UL
LTa
LCa setrgbcolor
3790 640 M
0 3159 V
stroke
LTb
LCb setrgbcolor
3790 640 M
0 63 V
0 3096 R
0 -63 V
stroke
3790 440 M
[ [(Helvetica) 200.0 0.0 true true 0 ( 1)]
] -66.7 MCshow
1.000 UL
LTb
LCb setrgbcolor
1.000 UL
LTa
LCa setrgbcolor
5314 640 M
0 3159 V
stroke
LTb
LCb setrgbcolor
5314 640 M
0 63 V
0 3096 R
0 -63 V
stroke
5314 440 M
[ [(Helvetica) 200.0 0.0 true true 0 ( 1.5)]
] -66.7 MCshow
1.000 UL
LTb
LCb setrgbcolor
1.000 UL
LTa
LCa setrgbcolor
6839 640 M
0 3159 V
stroke
LTb
LCb setrgbcolor
6839 640 M
0 63 V
0 3096 R
0 -63 V
stroke
6839 440 M
[ [(Helvetica) 200.0 0.0 true true 0 ( 2)]
] -66.7 MCshow
1.000 UL
LTb
LCb setrgbcolor
1.000 UL
LTb
LCb setrgbcolor
740 3799 N
740 640 L
6099 0 V
0 3159 V
-6099 0 V
Z stroke
LCb setrgbcolor
160 2219 M
currentpoint gsave translate -270 rotate 0 0 moveto
[ [(Helvetica) 200.0 0.0 true true 0 (K)]
] -66.7 MCshow
grestore
LTb
LCb setrgbcolor
3789 140 M
[ [(Symbol) 200.0 0.0 true true 0 (D)]
] -66.7 MCshow
LTb
1.000 UP
1.000 UL
LTb
LCb setrgbcolor
% Begin plot #1
1.000 UP
1.000 UL
LT0
1.00 0.00 0.00 C LCb setrgbcolor
3006 4877 M
[ [(Helvetica) 160.0 0.0 true true 0 (N=100, )]
[(Symbol) 160.0 0.0 true true 0 (a)]
[(Helvetica) 160.0 0.0 true true 0 (=)]
[(Symbol) 160.0 0.0 true true 0 (p)]
[(Helvetica) 160.0 0.0 true true 0 (/6, Numer)]
] -53.3 MRshow
LT0
1.00 0.00 0.00 C 3126 4877 M
543 0 V
740 640 M
321 88 V
321 70 V
321 70 V
321 70 V
321 71 V
321 70 V
321 70 V
321 70 V
321 88 V
321 70 V
321 70 V
321 71 V
321 70 V
321 70 V
321 70 V
321 70 V
321 71 V
321 87 V
321 70 V
740 640 Star
1061 728 Star
1382 798 Star
1703 868 Star
2024 938 Star
2345 1009 Star
2666 1079 Star
2987 1149 Star
3308 1219 Star
3629 1307 Star
3950 1377 Star
4271 1447 Star
4592 1518 Star
4913 1588 Star
5234 1658 Star
5555 1728 Star
5876 1798 Star
6197 1869 Star
6518 1956 Star
6839 2026 Star
3397 4877 Star
% End plot #1
% Begin plot #2
1.000 UP
1.000 UL
LT1
0.00 0.00 1.00 C LCb setrgbcolor
3006 4677 M
[ [(Helvetica) 160.0 0.0 true true 0 (N=100, )]
[(Symbol) 160.0 0.0 true true 0 (a)]
[(Helvetica) 160.0 0.0 true true 0 (=)]
[(Symbol) 160.0 0.0 true true 0 (p)]
[(Helvetica) 160.0 0.0 true true 0 (/6, Upper Margin)]
] -53.3 MRshow
LT1
0.00 0.00 1.00 C 3126 4677 M
543 0 V
740 640 M
321 105 V
321 104 V
321 105 V
321 104 V
321 105 V
321 104 V
321 105 V
321 104 V
321 105 V
321 104 V
321 105 V
321 104 V
321 105 V
321 104 V
321 105 V
321 104 V
321 105 V
321 104 V
321 105 V
740 640 Circle
1061 745 Circle
1382 849 Circle
1703 954 Circle
2024 1058 Circle
2345 1163 Circle
2666 1267 Circle
2987 1372 Circle
3308 1476 Circle
3629 1581 Circle
3950 1685 Circle
4271 1790 Circle
4592 1894 Circle
4913 1999 Circle
5234 2103 Circle
5555 2208 Circle
5876 2312 Circle
6197 2417 Circle
6518 2521 Circle
6839 2626 Circle
3397 4677 Circle
% End plot #2
% Begin plot #3
1.000 UP
1.000 UL
LT1
0.00 0.00 1.00 C LCb setrgbcolor
3006 4477 M
[ [(Helvetica) 160.0 0.0 true true 0 (N=100, )]
[(Symbol) 160.0 0.0 true true 0 (a)]
[(Helvetica) 160.0 0.0 true true 0 (=)]
[(Symbol) 160.0 0.0 true true 0 (p)]
[(Helvetica) 160.0 0.0 true true 0 (/6, Lower Margin)]
] -53.3 MRshow
LT1
0.00 0.00 1.00 C 3126 4477 M
543 0 V
740 640 M
321 71 V
321 72 V
321 71 V
321 72 V
321 71 V
321 71 V
321 72 V
321 71 V
321 71 V
321 72 V
321 71 V
321 72 V
321 71 V
321 71 V
321 72 V
321 71 V
321 71 V
321 72 V
321 71 V
740 640 Box
1061 711 Box
1382 783 Box
1703 854 Box
2024 926 Box
2345 997 Box
2666 1068 Box
2987 1140 Box
3308 1211 Box
3629 1282 Box
3950 1354 Box
4271 1425 Box
4592 1497 Box
4913 1568 Box
5234 1639 Box
5555 1711 Box
5876 1782 Box
6197 1853 Box
6518 1925 Box
6839 1996 Box
3397 4477 Box
% End plot #3
% Begin plot #4
1.000 UP
1.000 UL
LT0
1.00 0.00 0.00 C LCb setrgbcolor
3006 4277 M
[ [(Helvetica) 160.0 0.0 true true 0 (N=100, )]
[(Symbol) 160.0 0.0 true true 0 (a)]
[(Helvetica) 160.0 0.0 true true 0 (=)]
[(Symbol) 160.0 0.0 true true 0 (p)]
[(Helvetica) 160.0 0.0 true true 0 (/12, Numer)]
] -53.3 MRshow
LT0
1.00 0.00 0.00 C 3126 4277 M
543 0 V
740 640 M
321 158 V
321 140 V
321 141 V
321 140 V
321 141 V
321 140 V
321 140 V
321 141 V
321 140 V
321 141 V
321 140 V
321 158 V
321 140 V
321 141 V
321 140 V
321 141 V
321 140 V
321 140 V
321 141 V
740 640 Star
1061 798 Star
1382 938 Star
1703 1079 Star
2024 1219 Star
2345 1360 Star
2666 1500 Star
2987 1640 Star
3308 1781 Star
3629 1921 Star
3950 2062 Star
4271 2202 Star
4592 2360 Star
4913 2500 Star
5234 2641 Star
5555 2781 Star
5876 2922 Star
6197 3062 Star
6518 3202 Star
6839 3343 Star
3397 4277 Star
% End plot #4
% Begin plot #5
1.000 UP
1.000 UL
LT1
0.00 1.00 0.00 C LCb setrgbcolor
6069 4877 M
[ [(Helvetica) 160.0 0.0 true true 0 (N=100, )]
[(Symbol) 160.0 0.0 true true 0 (a)]
[(Helvetica) 160.0 0.0 true true 0 (=)]
[(Symbol) 160.0 0.0 true true 0 (p)]
[(Helvetica) 160.0 0.0 true true 0 (/12, Upper Margin)]
] -53.3 MRshow
LT1
0.00 1.00 0.00 C 6189 4877 M
543 0 V
740 640 M
321 155 V
321 154 V
321 155 V
321 154 V
321 155 V
321 154 V
321 155 V
321 154 V
321 155 V
321 154 V
321 155 V
321 154 V
321 155 V
321 154 V
321 155 V
321 154 V
321 155 V
321 154 V
321 155 V
740 640 Circle
1061 795 Circle
1382 949 Circle
1703 1104 Circle
2024 1258 Circle
2345 1413 Circle
2666 1567 Circle
2987 1722 Circle
3308 1876 Circle
3629 2031 Circle
3950 2185 Circle
4271 2340 Circle
4592 2494 Circle
4913 2649 Circle
5234 2803 Circle
5555 2958 Circle
5876 3112 Circle
6197 3267 Circle
6518 3421 Circle
6839 3576 Circle
6460 4877 Circle
% End plot #5
% Begin plot #6
1.000 UP
1.000 UL
LT1
0.00 1.00 0.00 C LCb setrgbcolor
6069 4677 M
[ [(Helvetica) 160.0 0.0 true true 0 (N=100, )]
[(Symbol) 160.0 0.0 true true 0 (a)]
[(Helvetica) 160.0 0.0 true true 0 (=)]
[(Symbol) 160.0 0.0 true true 0 (p)]
[(Helvetica) 160.0 0.0 true true 0 (/12, Lower Margin)]
] -53.3 MRshow
LT1
0.00 1.00 0.00 C 6189 4677 M
543 0 V
740 640 M
321 142 V
321 141 V
321 142 V
321 141 V
321 142 V
321 141 V
321 142 V
321 141 V
321 142 V
321 141 V
321 142 V
321 141 V
321 142 V
321 141 V
321 142 V
321 142 V
321 141 V
321 142 V
321 141 V
740 640 Box
1061 782 Box
1382 923 Box
1703 1065 Box
2024 1206 Box
2345 1348 Box
2666 1489 Box
2987 1631 Box
3308 1772 Box
3629 1914 Box
3950 2055 Box
4271 2197 Box
4592 2338 Box
4913 2480 Box
5234 2621 Box
5555 2763 Box
5876 2905 Box
6197 3046 Box
6518 3188 Box
6839 3329 Box
6460 4677 Box
% End plot #6
% Begin plot #7
2.000 UP
1.000 UL
LT6
0.00 1.00 1.00 C LCb setrgbcolor
6069 4477 M
[ [(Helvetica) 160.0 0.0 true true 0 (N=10, random, )]
[(Symbol) 160.0 0.0 true true 0 (a)]
[(Helvetica) 160.0 0.0 true true 0 (=)]
[(Symbol) 160.0 0.0 true true 0 (p)]
[(Helvetica) 160.0 0.0 true true 0 (/12)]
] -53.3 MRshow
LT6
0.00 1.00 1.00 C 740 640 TriU
1047 780 TriU
1354 921 TriU
1662 1061 TriU
1969 1184 TriU
2276 1324 TriU
2583 1465 TriU
2891 1605 TriU
3198 1728 TriU
3505 1869 TriU
3812 2009 TriU
4119 2149 TriU
4427 2272 TriU
4734 2413 TriU
5041 2553 TriU
5348 2693 TriU
5656 2816 TriU
5963 2957 TriU
6270 3097 TriU
6577 3237 TriU
6460 4477 TriU
% End plot #7
% Begin plot #8
2.000 UP
1.000 UL
LT7
1.00 0.00 1.00 C LCb setrgbcolor
6069 4277 M
[ [(Helvetica) 160.0 0.0 true true 0 (N=100, random, )]
[(Symbol) 160.0 0.0 true true 0 (a)]
[(Helvetica) 160.0 0.0 true true 0 (=)]
[(Symbol) 160.0 0.0 true true 0 (p)]
[(Helvetica) 160.0 0.0 true true 0 (/6)]
] -53.3 MRshow
LT7
1.00 0.00 1.00 C 740 640 TriD
1058 728 TriD
1376 798 TriD
1693 868 TriD
2011 938 TriD
2329 1009 TriD
2647 1079 TriD
2965 1149 TriD
3283 1219 TriD
3600 1289 TriD
3918 1360 TriD
4236 1430 TriD
4554 1500 TriD
4872 1570 TriD
5190 1640 TriD
5507 1728 TriD
5825 1798 TriD
6143 1869 TriD
6461 1939 TriD
6779 2009 TriD
6460 4277 TriD
% End plot #8
1.000 UL
LTb
LCb setrgbcolor
740 3799 N
740 640 L
6099 0 V
0 3159 V
-6099 0 V
Z stroke
1.000 UP
1.000 UL
LTb
LCb setrgbcolor
stroke
grestore
end
showpage
%%Trailer
%%DocumentFonts: Symbol Helvetica
